GCA_000992375.1	results/annotation/GCA_000992375.1/GCA_000992375.1.fna
GCA_000992575.2	results/annotation/GCA_000992575.2/GCA_000992575.2.fna
GCA_000992615.1	results/annotation/GCA_000992615.1/GCA_000992615.1.fna
GCA_000992665.1	results/annotation/GCA_000992665.1/GCA_000992665.1.fna
GCA_000992745.1	results/annotation/GCA_000992745.1/GCA_000992745.1.fna
GCA_000992765.1	results/annotation/GCA_000992765.1/GCA_000992765.1.fna
GCA_000994905.1	results/annotation/GCA_000994905.1/GCA_000994905.1.fna
GCA_000995525.1	results/annotation/GCA_000995525.1/GCA_000995525.1.fna
GCA_000996575.1	results/annotation/GCA_000996575.1/GCA_000996575.1.fna
GCA_000999715.1	results/annotation/GCA_000999715.1/GCA_000999715.1.fna
GCA_001777995.1	results/annotation/GCA_001777995.1/GCA_001777995.1.fna
GCA_001778005.1	results/annotation/GCA_001778005.1/GCA_001778005.1.fna
GCA_001778015.1	results/annotation/GCA_001778015.1/GCA_001778015.1.fna
GCA_001778055.1	results/annotation/GCA_001778055.1/GCA_001778055.1.fna
GCA_001778075.1	results/annotation/GCA_001778075.1/GCA_001778075.1.fna
GCA_001778085.1	results/annotation/GCA_001778085.1/GCA_001778085.1.fna
GCA_001778095.1	results/annotation/GCA_001778095.1/GCA_001778095.1.fna
GCA_001778135.1	results/annotation/GCA_001778135.1/GCA_001778135.1.fna
GCA_001778155.1	results/annotation/GCA_001778155.1/GCA_001778155.1.fna
GCA_001778165.1	results/annotation/GCA_001778165.1/GCA_001778165.1.fna
GCA_001778195.1	results/annotation/GCA_001778195.1/GCA_001778195.1.fna
GCA_001778205.1	results/annotation/GCA_001778205.1/GCA_001778205.1.fna
GCA_001778235.1	results/annotation/GCA_001778235.1/GCA_001778235.1.fna
GCA_001778255.1	results/annotation/GCA_001778255.1/GCA_001778255.1.fna
GCA_001778275.1	results/annotation/GCA_001778275.1/GCA_001778275.1.fna
GCA_001778285.1	results/annotation/GCA_001778285.1/GCA_001778285.1.fna
GCA_001778325.1	results/annotation/GCA_001778325.1/GCA_001778325.1.fna
GCA_001780195.1	results/annotation/GCA_001780195.1/GCA_001780195.1.fna
GCA_001780215.1	results/annotation/GCA_001780215.1/GCA_001780215.1.fna
GCA_001780235.1	results/annotation/GCA_001780235.1/GCA_001780235.1.fna
GCA_001780255.1	results/annotation/GCA_001780255.1/GCA_001780255.1.fna
GCA_001780275.1	results/annotation/GCA_001780275.1/GCA_001780275.1.fna
GCA_001780285.1	results/annotation/GCA_001780285.1/GCA_001780285.1.fna
GCA_001780315.1	results/annotation/GCA_001780315.1/GCA_001780315.1.fna
GCA_001780335.1	results/annotation/GCA_001780335.1/GCA_001780335.1.fna
GCA_001871165.1	results/annotation/GCA_001871165.1/GCA_001871165.1.fna
GCA_001871205.1	results/annotation/GCA_001871205.1/GCA_001871205.1.fna
GCA_001871235.1	results/annotation/GCA_001871235.1/GCA_001871235.1.fna
GW2011_GWA2_42_15	results/annotation/GW2011_GWA2_42_15/GW2011_GWA2_42_15.fna
KR11_0.1_MetaG.010.2k	results/annotation/KR11_0.1_MetaG.010.2k/KR11_0.1_MetaG.010.2k.fna
KR11_0.1_MetaG.017.2k	results/annotation/KR11_0.1_MetaG.017.2k/KR11_0.1_MetaG.017.2k.fna
KR11_0.1_MetaG.018.2k	results/annotation/KR11_0.1_MetaG.018.2k/KR11_0.1_MetaG.018.2k.fna
KR11_0.1_MetaG.033.2k	results/annotation/KR11_0.1_MetaG.033.2k/KR11_0.1_MetaG.033.2k.fna
KR11_0.1_MetaG.045.2k	results/annotation/KR11_0.1_MetaG.045.2k/KR11_0.1_MetaG.045.2k.fna
KR11_0.1_MetaG.065.2k	results/annotation/KR11_0.1_MetaG.065.2k/KR11_0.1_MetaG.065.2k.fna
KR11_0.1_MetaG.066.2k	results/annotation/KR11_0.1_MetaG.066.2k/KR11_0.1_MetaG.066.2k.fna
KR11_0.1_MetaG.067.2k	results/annotation/KR11_0.1_MetaG.067.2k/KR11_0.1_MetaG.067.2k.fna
KR11_0.1_MetaG.080.2k	results/annotation/KR11_0.1_MetaG.080.2k/KR11_0.1_MetaG.080.2k.fna
KR11_0.1_MetaG.083.2k	results/annotation/KR11_0.1_MetaG.083.2k/KR11_0.1_MetaG.083.2k.fna
KR11_0.1_MetaG.086.2k	results/annotation/KR11_0.1_MetaG.086.2k/KR11_0.1_MetaG.086.2k.fna
KR11_0.1_MetaG.093.2k	results/annotation/KR11_0.1_MetaG.093.2k/KR11_0.1_MetaG.093.2k.fna
KR11_0.1_MetaG.100.2k	results/annotation/KR11_0.1_MetaG.100.2k/KR11_0.1_MetaG.100.2k.fna
KR11_0.1_MetaG.103.2k	results/annotation/KR11_0.1_MetaG.103.2k/KR11_0.1_MetaG.103.2k.fna
KR11_0.1_MetaG.106.2k	results/annotation/KR11_0.1_MetaG.106.2k/KR11_0.1_MetaG.106.2k.fna
KR11_0.1_MetaG.116.2k	results/annotation/KR11_0.1_MetaG.116.2k/KR11_0.1_MetaG.116.2k.fna
KR11_Ju.003.2k	results/annotation/KR11_Ju.003.2k/KR11_Ju.003.2k.fna
KR11_Ju.006.2k	results/annotation/KR11_Ju.006.2k/KR11_Ju.006.2k.fna
KR11_Ju.007.2k	results/annotation/KR11_Ju.007.2k/KR11_Ju.007.2k.fna
KR11_Ju.010.2k	results/annotation/KR11_Ju.010.2k/KR11_Ju.010.2k.fna
KR11_Ju.014.2k	results/annotation/KR11_Ju.014.2k/KR11_Ju.014.2k.fna
KR11_N2.001.2k	results/annotation/KR11_N2.001.2k/KR11_N2.001.2k.fna
KR11_N2.005.2k	results/annotation/KR11_N2.005.2k/KR11_N2.005.2k.fna
KR11_N2.006.2k	results/annotation/KR11_N2.006.2k/KR11_N2.006.2k.fna
KR11_N2.007.2k	results/annotation/KR11_N2.007.2k/KR11_N2.007.2k.fna
KR11_N2.013.2k	results/annotation/KR11_N2.013.2k/KR11_N2.013.2k.fna
KR11_N2.017.2k	results/annotation/KR11_N2.017.2k/KR11_N2.017.2k.fna
KR11_N2.018.2k	results/annotation/KR11_N2.018.2k/KR11_N2.018.2k.fna
KR11_N3.002.2k	results/annotation/KR11_N3.002.2k/KR11_N3.002.2k.fna
KR11_N3.004.2k	results/annotation/KR11_N3.004.2k/KR11_N3.004.2k.fna
KR11_N3.005.2k	results/annotation/KR11_N3.005.2k/KR11_N3.005.2k.fna
KR11_N3.006.2k	results/annotation/KR11_N3.006.2k/KR11_N3.006.2k.fna
KR11_N3.017.2k	results/annotation/KR11_N3.017.2k/KR11_N3.017.2k.fna
KR11_N3.021.2k	results/annotation/KR11_N3.021.2k/KR11_N3.021.2k.fna
KR11_N3.023.2k	results/annotation/KR11_N3.023.2k/KR11_N3.023.2k.fna
KR11_N3.025.2k	results/annotation/KR11_N3.025.2k/KR11_N3.025.2k.fna
KR11_N3.030.2k	results/annotation/KR11_N3.030.2k/KR11_N3.030.2k.fna
KR11_N3.033.2k	results/annotation/KR11_N3.033.2k/KR11_N3.033.2k.fna
KR11_N3.034.2k	results/annotation/KR11_N3.034.2k/KR11_N3.034.2k.fna
KR11_N3.035.2k	results/annotation/KR11_N3.035.2k/KR11_N3.035.2k.fna
KR11_N3.036.2k	results/annotation/KR11_N3.036.2k/KR11_N3.036.2k.fna
KR11_S2_MetaG.002.2k	results/annotation/KR11_S2_MetaG.002.2k/KR11_S2_MetaG.002.2k.fna
KR11_S2_MetaG.005.2k	results/annotation/KR11_S2_MetaG.005.2k/KR11_S2_MetaG.005.2k.fna
KR11_S2_MetaG.007.2k	results/annotation/KR11_S2_MetaG.007.2k/KR11_S2_MetaG.007.2k.fna
KR11_S2_MetaG.008.2k	results/annotation/KR11_S2_MetaG.008.2k/KR11_S2_MetaG.008.2k.fna
KR11_S2_MetaG.009.2k	results/annotation/KR11_S2_MetaG.009.2k/KR11_S2_MetaG.009.2k.fna
KR11_S3.006.2k	results/annotation/KR11_S3.006.2k/KR11_S3.006.2k.fna
KR11_S3.007.2k	results/annotation/KR11_S3.007.2k/KR11_S3.007.2k.fna
KR11_S3.008.2k	results/annotation/KR11_S3.008.2k/KR11_S3.008.2k.fna
KR11_S3.010.2k	results/annotation/KR11_S3.010.2k/KR11_S3.010.2k.fna
KR11_S3.012.2k	results/annotation/KR11_S3.012.2k/KR11_S3.012.2k.fna
KR11_S3.020.2k	results/annotation/KR11_S3.020.2k/KR11_S3.020.2k.fna
KR11_S3.031.2k	results/annotation/KR11_S3.031.2k/KR11_S3.031.2k.fna
KR11_S3.038.2k	results/annotation/KR11_S3.038.2k/KR11_S3.038.2k.fna
KR13_J_MetaG.007.2k	results/annotation/KR13_J_MetaG.007.2k/KR13_J_MetaG.007.2k.fna
KR13_Ju.003.2k	results/annotation/KR13_Ju.003.2k/KR13_Ju.003.2k.fna
KR13_Ju.008.2k	results/annotation/KR13_Ju.008.2k/KR13_Ju.008.2k.fna
KR13_Ju.010.2k	results/annotation/KR13_Ju.010.2k/KR13_Ju.010.2k.fna
KR13_Ju.017.2k	results/annotation/KR13_Ju.017.2k/KR13_Ju.017.2k.fna
KR13_Ju.022.2k	results/annotation/KR13_Ju.022.2k/KR13_Ju.022.2k.fna
KR13_Ju.024.2k	results/annotation/KR13_Ju.024.2k/KR13_Ju.024.2k.fna
KR13_N1.008.2k	results/annotation/KR13_N1.008.2k/KR13_N1.008.2k.fna
KR13_N1.016.2k	results/annotation/KR13_N1.016.2k/KR13_N1.016.2k.fna
KR13_N1.020.2k	results/annotation/KR13_N1.020.2k/KR13_N1.020.2k.fna
KR13_N1.024.2k	results/annotation/KR13_N1.024.2k/KR13_N1.024.2k.fna
KR13_N1.025.2k	results/annotation/KR13_N1.025.2k/KR13_N1.025.2k.fna
KR13_N1.026.2k	results/annotation/KR13_N1.026.2k/KR13_N1.026.2k.fna
KR13_N1.028.2k	results/annotation/KR13_N1.028.2k/KR13_N1.028.2k.fna
KR13_N1.030.2k	results/annotation/KR13_N1.030.2k/KR13_N1.030.2k.fna
KR13_N1.032.2k	results/annotation/KR13_N1.032.2k/KR13_N1.032.2k.fna
KR13_N1.039.2k	results/annotation/KR13_N1.039.2k/KR13_N1.039.2k.fna
KR13_N1.040.2k	results/annotation/KR13_N1.040.2k/KR13_N1.040.2k.fna
KR13_N1.043.2k	results/annotation/KR13_N1.043.2k/KR13_N1.043.2k.fna
KR13_N2.003.2k	results/annotation/KR13_N2.003.2k/KR13_N2.003.2k.fna
KR13_N2.004.2k	results/annotation/KR13_N2.004.2k/KR13_N2.004.2k.fna
KR13_N2.006.2k	results/annotation/KR13_N2.006.2k/KR13_N2.006.2k.fna
KR13_N2.024.2k	results/annotation/KR13_N2.024.2k/KR13_N2.024.2k.fna
KR13_N2.028.2k	results/annotation/KR13_N2.028.2k/KR13_N2.028.2k.fna
KR13_N2.031.2k	results/annotation/KR13_N2.031.2k/KR13_N2.031.2k.fna
KR13_N2.035.2k	results/annotation/KR13_N2.035.2k/KR13_N2.035.2k.fna
KR13_N2.048.2k	results/annotation/KR13_N2.048.2k/KR13_N2.048.2k.fna
KR13_N2.053.2k	results/annotation/KR13_N2.053.2k/KR13_N2.053.2k.fna
KR13_N2.057.2k	results/annotation/KR13_N2.057.2k/KR13_N2.057.2k.fna
KR13_N2.068.2k	results/annotation/KR13_N2.068.2k/KR13_N2.068.2k.fna
KR13_N2.069.2k	results/annotation/KR13_N2.069.2k/KR13_N2.069.2k.fna
KR13_N2.070.2k	results/annotation/KR13_N2.070.2k/KR13_N2.070.2k.fna
KR13_N2.073.2k	results/annotation/KR13_N2.073.2k/KR13_N2.073.2k.fna
KR13_N2.076.2k	results/annotation/KR13_N2.076.2k/KR13_N2.076.2k.fna
KR13_N2.085.2k	results/annotation/KR13_N2.085.2k/KR13_N2.085.2k.fna
KR13_N2.088.2k	results/annotation/KR13_N2.088.2k/KR13_N2.088.2k.fna
KR13_N2.089.2k	results/annotation/KR13_N2.089.2k/KR13_N2.089.2k.fna
KR13_N2.091.2k	results/annotation/KR13_N2.091.2k/KR13_N2.091.2k.fna
KR13_N2.096.2k	results/annotation/KR13_N2.096.2k/KR13_N2.096.2k.fna
KR13_N2.099.2k	results/annotation/KR13_N2.099.2k/KR13_N2.099.2k.fna
KR13_N2.102.2k	results/annotation/KR13_N2.102.2k/KR13_N2.102.2k.fna
KR13_N2.103.2k	results/annotation/KR13_N2.103.2k/KR13_N2.103.2k.fna
KR13_S1_MetaG.002.2k	results/annotation/KR13_S1_MetaG.002.2k/KR13_S1_MetaG.002.2k.fna
KR13_S1_MetaG.004.2k	results/annotation/KR13_S1_MetaG.004.2k/KR13_S1_MetaG.004.2k.fna
KR13_S1_MetaG.009.2k	results/annotation/KR13_S1_MetaG.009.2k/KR13_S1_MetaG.009.2k.fna
KR13_S2_MetaG.003.2k	results/annotation/KR13_S2_MetaG.003.2k/KR13_S2_MetaG.003.2k.fna
KR13_S3.002.2k	results/annotation/KR13_S3.002.2k/KR13_S3.002.2k.fna
KR13_S3.005.2k	results/annotation/KR13_S3.005.2k/KR13_S3.005.2k.fna
KR13_S3.008.2k	results/annotation/KR13_S3.008.2k/KR13_S3.008.2k.fna
KR13_S3.013.2k	results/annotation/KR13_S3.013.2k/KR13_S3.013.2k.fna
KR13_S3.040.2k	results/annotation/KR13_S3.040.2k/KR13_S3.040.2k.fna
KR13_S3.043.2k	results/annotation/KR13_S3.043.2k/KR13_S3.043.2k.fna
KR13_S3.051.2k	results/annotation/KR13_S3.051.2k/KR13_S3.051.2k.fna
KR13_S3.053.2k	results/annotation/KR13_S3.053.2k/KR13_S3.053.2k.fna
KR13_S3.060.2k	results/annotation/KR13_S3.060.2k/KR13_S3.060.2k.fna
KR13_S3.064.2k	results/annotation/KR13_S3.064.2k/KR13_S3.064.2k.fna
KR13_S3.065.2k	results/annotation/KR13_S3.065.2k/KR13_S3.065.2k.fna
KR13_S3.066.2k	results/annotation/KR13_S3.066.2k/KR13_S3.066.2k.fna
KR13_S3.074.2k	results/annotation/KR13_S3.074.2k/KR13_S3.074.2k.fna
KR13_S3.081.2k	results/annotation/KR13_S3.081.2k/KR13_S3.081.2k.fna
KR13_S3.091.2k	results/annotation/KR13_S3.091.2k/KR13_S3.091.2k.fna
KR13_S3.098.2k	results/annotation/KR13_S3.098.2k/KR13_S3.098.2k.fna
KR13_S3.104.2k	results/annotation/KR13_S3.104.2k/KR13_S3.104.2k.fna
KR13_S3.106.2k	results/annotation/KR13_S3.106.2k/KR13_S3.106.2k.fna
KR13_S3.114.2k	results/annotation/KR13_S3.114.2k/KR13_S3.114.2k.fna
KR46_Ju.008.2k	results/annotation/KR46_Ju.008.2k/KR46_Ju.008.2k.fna
KR46_Ju.015.2k	results/annotation/KR46_Ju.015.2k/KR46_Ju.015.2k.fna
KR46_Ju.016.2k	results/annotation/KR46_Ju.016.2k/KR46_Ju.016.2k.fna
KR46_M_MetaG.001.2k	results/annotation/KR46_M_MetaG.001.2k/KR46_M_MetaG.001.2k.fna
KR46_S_MetaG.003.2k	results/annotation/KR46_S_MetaG.003.2k/KR46_S_MetaG.003.2k.fna
KR46_S_MetaG.007.2k	results/annotation/KR46_S_MetaG.007.2k/KR46_S_MetaG.007.2k.fna
KR46_S_MetaG.009.2k	results/annotation/KR46_S_MetaG.009.2k/KR46_S_MetaG.009.2k.fna
MMBG_1	results/annotation/MMBG_1/MMBG_1.fna
MMBG_10	results/annotation/MMBG_10/MMBG_10.fna
MMBG_14	results/annotation/MMBG_14/MMBG_14.fna
MMBG_55	results/annotation/MMBG_55/MMBG_55.fna
MMBG_67	results/annotation/MMBG_67/MMBG_67.fna
MMBG_90	results/annotation/MMBG_90/MMBG_90.fna
MMBR_34	results/annotation/MMBR_34/MMBR_34.fna
MMBR_88	results/annotation/MMBR_88/MMBR_88.fna
MML_A.003.2k	results/annotation/MML_A.003.2k/MML_A.003.2k.fna
MML_B.008.2k	results/annotation/MML_B.008.2k/MML_B.008.2k.fna
MMPL_A_0	results/annotation/MMPL_A_0/MMPL_A_0.fna
MMPL_A_30	results/annotation/MMPL_A_30/MMPL_A_30.fna
MMPL_B_7	results/annotation/MMPL_B_7/MMPL_B_7.fna
MMS_A.001.2k	results/annotation/MMS_A.001.2k/MMS_A.001.2k.fna
MMS_A.022.2k	results/annotation/MMS_A.022.2k/MMS_A.022.2k.fna
MMS_B.001.2k	results/annotation/MMS_B.001.2k/MMS_B.001.2k.fna
MMS_B.002.2k	results/annotation/MMS_B.002.2k/MMS_B.002.2k.fna
MMS_B.011.2k	results/annotation/MMS_B.011.2k/MMS_B.011.2k.fna
MMS_B.016.2k	results/annotation/MMS_B.016.2k/MMS_B.016.2k.fna
MM_PC_MetaG.003.2k	results/annotation/MM_PC_MetaG.003.2k/MM_PC_MetaG.003.2k.fna
MM_PC_MetaG.005.2k	results/annotation/MM_PC_MetaG.005.2k/MM_PC_MetaG.005.2k.fna
MM_PC_MetaG.007.2k	results/annotation/MM_PC_MetaG.007.2k/MM_PC_MetaG.007.2k.fna
MM_PC_MetaG.019.2k	results/annotation/MM_PC_MetaG.019.2k/MM_PC_MetaG.019.2k.fna
MM_PC_MetaG.022.2k	results/annotation/MM_PC_MetaG.022.2k/MM_PC_MetaG.022.2k.fna
MM_PC_MetaG.032.2k	results/annotation/MM_PC_MetaG.032.2k/MM_PC_MetaG.032.2k.fna
MM_PC_MetaG.034.2k	results/annotation/MM_PC_MetaG.034.2k/MM_PC_MetaG.034.2k.fna
MM_PC_MetaG.040.2k	results/annotation/MM_PC_MetaG.040.2k/MM_PC_MetaG.040.2k.fna
MM_PC_MetaG.041.2k	results/annotation/MM_PC_MetaG.041.2k/MM_PC_MetaG.041.2k.fna
MM_PC_MetaG.044.2k	results/annotation/MM_PC_MetaG.044.2k/MM_PC_MetaG.044.2k.fna
MM_PC_MetaG.046.2k	results/annotation/MM_PC_MetaG.046.2k/MM_PC_MetaG.046.2k.fna
MM_PC_MetaG.052.2k	results/annotation/MM_PC_MetaG.052.2k/MM_PC_MetaG.052.2k.fna
MM_PC_MetaG.053.2k	results/annotation/MM_PC_MetaG.053.2k/MM_PC_MetaG.053.2k.fna
MM_PC_MetaG.059.2k	results/annotation/MM_PC_MetaG.059.2k/MM_PC_MetaG.059.2k.fna
MM_PC_MetaG.065.2k	results/annotation/MM_PC_MetaG.065.2k/MM_PC_MetaG.065.2k.fna
MM_PC_MetaG.067.2k	results/annotation/MM_PC_MetaG.067.2k/MM_PC_MetaG.067.2k.fna
MM_PC_MetaG.069.2k	results/annotation/MM_PC_MetaG.069.2k/MM_PC_MetaG.069.2k.fna
MM_PC_MetaG.084.2k	results/annotation/MM_PC_MetaG.084.2k/MM_PC_MetaG.084.2k.fna
MM_PC_MetaG.085.2k	results/annotation/MM_PC_MetaG.085.2k/MM_PC_MetaG.085.2k.fna
MM_PC_MetaG.087.2k	results/annotation/MM_PC_MetaG.087.2k/MM_PC_MetaG.087.2k.fna
MM_PC_MetaG.088.2k	results/annotation/MM_PC_MetaG.088.2k/MM_PC_MetaG.088.2k.fna
MM_PC_MetaG.089.2k	results/annotation/MM_PC_MetaG.089.2k/MM_PC_MetaG.089.2k.fna
MM_PC_MetaG.090.2k	results/annotation/MM_PC_MetaG.090.2k/MM_PC_MetaG.090.2k.fna
MM_PC_MetaG.091.2k	results/annotation/MM_PC_MetaG.091.2k/MM_PC_MetaG.091.2k.fna
MM_PC_MetaG.095.2k	results/annotation/MM_PC_MetaG.095.2k/MM_PC_MetaG.095.2k.fna
MM_PC_MetaG.097.2k	results/annotation/MM_PC_MetaG.097.2k/MM_PC_MetaG.097.2k.fna
MM_PC_MetaG.102.2k	results/annotation/MM_PC_MetaG.102.2k/MM_PC_MetaG.102.2k.fna
MM_PC_MetaG.105.2k	results/annotation/MM_PC_MetaG.105.2k/MM_PC_MetaG.105.2k.fna
MM_PC_MetaG.109.2k	results/annotation/MM_PC_MetaG.109.2k/MM_PC_MetaG.109.2k.fna
MM_PC_MetaG.110.2k	results/annotation/MM_PC_MetaG.110.2k/MM_PC_MetaG.110.2k.fna
MM_PC_MetaG.119.2k	results/annotation/MM_PC_MetaG.119.2k/MM_PC_MetaG.119.2k.fna
MM_PC_MetaG.122.2k	results/annotation/MM_PC_MetaG.122.2k/MM_PC_MetaG.122.2k.fna
MM_PC_MetaG.126.2k	results/annotation/MM_PC_MetaG.126.2k/MM_PC_MetaG.126.2k.fna
MM_PC_MetaG.128.2k	results/annotation/MM_PC_MetaG.128.2k/MM_PC_MetaG.128.2k.fna
MM_PC_MetaG.131.2k	results/annotation/MM_PC_MetaG.131.2k/MM_PC_MetaG.131.2k.fna
MM_PC_MetaG.134.2k	results/annotation/MM_PC_MetaG.134.2k/MM_PC_MetaG.134.2k.fna
MM_PC_MetaG.137.2k	results/annotation/MM_PC_MetaG.137.2k/MM_PC_MetaG.137.2k.fna
MM_PC_MetaG.152.2k	results/annotation/MM_PC_MetaG.152.2k/MM_PC_MetaG.152.2k.fna
MM_PC_MetaG.153.2k	results/annotation/MM_PC_MetaG.153.2k/MM_PC_MetaG.153.2k.fna
MM_PC_MetaG.154.2k	results/annotation/MM_PC_MetaG.154.2k/MM_PC_MetaG.154.2k.fna
MM_PC_MetaG.157.2k	results/annotation/MM_PC_MetaG.157.2k/MM_PC_MetaG.157.2k.fna
MM_PC_MetaG.162.2k	results/annotation/MM_PC_MetaG.162.2k/MM_PC_MetaG.162.2k.fna
MM_PC_MetaG.163.2k	results/annotation/MM_PC_MetaG.163.2k/MM_PC_MetaG.163.2k.fna
MM_PC_MetaG.168.2k	results/annotation/MM_PC_MetaG.168.2k/MM_PC_MetaG.168.2k.fna
MM_PC_MetaG.169.2k	results/annotation/MM_PC_MetaG.169.2k/MM_PC_MetaG.169.2k.fna
MM_PC_MetaG.173.2k	results/annotation/MM_PC_MetaG.173.2k/MM_PC_MetaG.173.2k.fna
MM_PC_MetaG.196.2k	results/annotation/MM_PC_MetaG.196.2k/MM_PC_MetaG.196.2k.fna
MM_PC_MetaG.197.2k	results/annotation/MM_PC_MetaG.197.2k/MM_PC_MetaG.197.2k.fna
MM_PC_MetaG.214.2k	results/annotation/MM_PC_MetaG.214.2k/MM_PC_MetaG.214.2k.fna
MM_PC_MetaG.217.2k	results/annotation/MM_PC_MetaG.217.2k/MM_PC_MetaG.217.2k.fna
MM_PC_MetaG.235.2k	results/annotation/MM_PC_MetaG.235.2k/MM_PC_MetaG.235.2k.fna
MM_PW_MetaG.009.2k	results/annotation/MM_PW_MetaG.009.2k/MM_PW_MetaG.009.2k.fna
MM_PW_MetaG.021.2k	results/annotation/MM_PW_MetaG.021.2k/MM_PW_MetaG.021.2k.fna
MM_PW_MetaG.031.2k	results/annotation/MM_PW_MetaG.031.2k/MM_PW_MetaG.031.2k.fna
Modern_marine.001.2k	results/annotation/Modern_marine.001.2k/Modern_marine.001.2k.fna
Modern_marine.002.2k	results/annotation/Modern_marine.002.2k/Modern_marine.002.2k.fna
Modern_marine.012.2k	results/annotation/Modern_marine.012.2k/Modern_marine.012.2k.fna
Modern_marine.013.2k	results/annotation/Modern_marine.013.2k/Modern_marine.013.2k.fna
Modern_marine.020.2k	results/annotation/Modern_marine.020.2k/Modern_marine.020.2k.fna
Modern_marine.021.2k	results/annotation/Modern_marine.021.2k/Modern_marine.021.2k.fna
Modern_marine.027.2k	results/annotation/Modern_marine.027.2k/Modern_marine.027.2k.fna
Modern_marine.028.2k	results/annotation/Modern_marine.028.2k/Modern_marine.028.2k.fna
Modern_marine.029.2k	results/annotation/Modern_marine.029.2k/Modern_marine.029.2k.fna
Modern_marine.032.2k	results/annotation/Modern_marine.032.2k/Modern_marine.032.2k.fna
Modern_marine.035.2k	results/annotation/Modern_marine.035.2k/Modern_marine.035.2k.fna
Modern_marine.037.2k	results/annotation/Modern_marine.037.2k/Modern_marine.037.2k.fna
Modern_marine.039.2k	results/annotation/Modern_marine.039.2k/Modern_marine.039.2k.fna
Modern_marine.041.2k	results/annotation/Modern_marine.041.2k/Modern_marine.041.2k.fna
Modern_marine.063.2k	results/annotation/Modern_marine.063.2k/Modern_marine.063.2k.fna
Modern_marine.064.2k	results/annotation/Modern_marine.064.2k/Modern_marine.064.2k.fna
Modern_marine.066.2k	results/annotation/Modern_marine.066.2k/Modern_marine.066.2k.fna
Modern_marine.082.2k	results/annotation/Modern_marine.082.2k/Modern_marine.082.2k.fna
Modern_marine.084.2k	results/annotation/Modern_marine.084.2k/Modern_marine.084.2k.fna
Modern_marine.090.2k	results/annotation/Modern_marine.090.2k/Modern_marine.090.2k.fna
Modern_marine.093.2k	results/annotation/Modern_marine.093.2k/Modern_marine.093.2k.fna
Modern_marine.095.2k	results/annotation/Modern_marine.095.2k/Modern_marine.095.2k.fna
Modern_marine.098.2k	results/annotation/Modern_marine.098.2k/Modern_marine.098.2k.fna
Modern_marine.100.2k	results/annotation/Modern_marine.100.2k/Modern_marine.100.2k.fna
Modern_marine.108.2k	results/annotation/Modern_marine.108.2k/Modern_marine.108.2k.fna
Modern_marine.109.2k	results/annotation/Modern_marine.109.2k/Modern_marine.109.2k.fna
Modern_marine.118.2k	results/annotation/Modern_marine.118.2k/Modern_marine.118.2k.fna
Modern_marine.137.2k	results/annotation/Modern_marine.137.2k/Modern_marine.137.2k.fna
Modern_marine.146.2k	results/annotation/Modern_marine.146.2k/Modern_marine.146.2k.fna
Modern_marine.149.2k	results/annotation/Modern_marine.149.2k/Modern_marine.149.2k.fna
Modern_marine.157.2k	results/annotation/Modern_marine.157.2k/Modern_marine.157.2k.fna
Modern_marine.159.2k	results/annotation/Modern_marine.159.2k/Modern_marine.159.2k.fna
Modern_marine.161.2k	results/annotation/Modern_marine.161.2k/Modern_marine.161.2k.fna
Modern_marine.165.2k	results/annotation/Modern_marine.165.2k/Modern_marine.165.2k.fna
Modern_marine.175.2k	results/annotation/Modern_marine.175.2k/Modern_marine.175.2k.fna
Modern_marine.181.2k	results/annotation/Modern_marine.181.2k/Modern_marine.181.2k.fna
Modern_marine.188.2k	results/annotation/Modern_marine.188.2k/Modern_marine.188.2k.fna
Modern_marine.194.2k	results/annotation/Modern_marine.194.2k/Modern_marine.194.2k.fna
Modern_marine.195.2k	results/annotation/Modern_marine.195.2k/Modern_marine.195.2k.fna
Modern_marine.198.2k	results/annotation/Modern_marine.198.2k/Modern_marine.198.2k.fna
Modern_marine.199.2k	results/annotation/Modern_marine.199.2k/Modern_marine.199.2k.fna
Modern_marine.203.2k	results/annotation/Modern_marine.203.2k/Modern_marine.203.2k.fna
Modern_marine.209.2k	results/annotation/Modern_marine.209.2k/Modern_marine.209.2k.fna
Modern_marine.210.2k	results/annotation/Modern_marine.210.2k/Modern_marine.210.2k.fna
Modern_marine.213.2k	results/annotation/Modern_marine.213.2k/Modern_marine.213.2k.fna
Modern_marine.214.2k	results/annotation/Modern_marine.214.2k/Modern_marine.214.2k.fna
Modern_marine.217.2k	results/annotation/Modern_marine.217.2k/Modern_marine.217.2k.fna
Modern_marine.219.2k	results/annotation/Modern_marine.219.2k/Modern_marine.219.2k.fna
Modern_marine.224.2k	results/annotation/Modern_marine.224.2k/Modern_marine.224.2k.fna
Modern_marine.225.2k	results/annotation/Modern_marine.225.2k/Modern_marine.225.2k.fna
Modern_marine.239.2k	results/annotation/Modern_marine.239.2k/Modern_marine.239.2k.fna
Modern_marine.244.2k	results/annotation/Modern_marine.244.2k/Modern_marine.244.2k.fna
Modern_marine.246.2k	results/annotation/Modern_marine.246.2k/Modern_marine.246.2k.fna
Modern_marine.251.2k	results/annotation/Modern_marine.251.2k/Modern_marine.251.2k.fna
Modern_marine_glass_biofilm.005.2k	results/annotation/Modern_marine_glass_biofilm.005.2k/Modern_marine_glass_biofilm.005.2k.fna
Modern_marine_glass_biofilm.008.2k	results/annotation/Modern_marine_glass_biofilm.008.2k/Modern_marine_glass_biofilm.008.2k.fna
Modern_marine_glass_biofilm.011.2k	results/annotation/Modern_marine_glass_biofilm.011.2k/Modern_marine_glass_biofilm.011.2k.fna
Modern_marine_glass_biofilm.014.2k	results/annotation/Modern_marine_glass_biofilm.014.2k/Modern_marine_glass_biofilm.014.2k.fna
Modern_marine_glass_biofilm.015.2k	results/annotation/Modern_marine_glass_biofilm.015.2k/Modern_marine_glass_biofilm.015.2k.fna
Modern_marine_glass_biofilm.017.2k	results/annotation/Modern_marine_glass_biofilm.017.2k/Modern_marine_glass_biofilm.017.2k.fna
Modern_marine_glass_biofilm.018.2k	results/annotation/Modern_marine_glass_biofilm.018.2k/Modern_marine_glass_biofilm.018.2k.fna
Modern_marine_glass_biofilm.020.2k	results/annotation/Modern_marine_glass_biofilm.020.2k/Modern_marine_glass_biofilm.020.2k.fna
Modern_marine_glass_biofilm.021.2k	results/annotation/Modern_marine_glass_biofilm.021.2k/Modern_marine_glass_biofilm.021.2k.fna
Modern_marine_glass_biofilm.030.2k	results/annotation/Modern_marine_glass_biofilm.030.2k/Modern_marine_glass_biofilm.030.2k.fna
Modern_marine_glass_biofilm.041.2k	results/annotation/Modern_marine_glass_biofilm.041.2k/Modern_marine_glass_biofilm.041.2k.fna
Modern_marine_glass_biofilm.048.2k	results/annotation/Modern_marine_glass_biofilm.048.2k/Modern_marine_glass_biofilm.048.2k.fna
Modern_marine_glass_biofilm.049.2k	results/annotation/Modern_marine_glass_biofilm.049.2k/Modern_marine_glass_biofilm.049.2k.fna
Modern_marine_glass_biofilm.052.2k	results/annotation/Modern_marine_glass_biofilm.052.2k/Modern_marine_glass_biofilm.052.2k.fna
Modern_marine_glass_biofilm.055.2k	results/annotation/Modern_marine_glass_biofilm.055.2k/Modern_marine_glass_biofilm.055.2k.fna
Modern_marine_glass_biofilm.060.2k	results/annotation/Modern_marine_glass_biofilm.060.2k/Modern_marine_glass_biofilm.060.2k.fna
Modern_marine_glass_biofilm.061.2k	results/annotation/Modern_marine_glass_biofilm.061.2k/Modern_marine_glass_biofilm.061.2k.fna
Modern_marine_glass_biofilm.066.2k	results/annotation/Modern_marine_glass_biofilm.066.2k/Modern_marine_glass_biofilm.066.2k.fna
Modern_marine_glass_biofilm.069.2k	results/annotation/Modern_marine_glass_biofilm.069.2k/Modern_marine_glass_biofilm.069.2k.fna
Modern_marine_glass_biofilm.072.2k	results/annotation/Modern_marine_glass_biofilm.072.2k/Modern_marine_glass_biofilm.072.2k.fna
Modern_marine_glass_biofilm.082.2k	results/annotation/Modern_marine_glass_biofilm.082.2k/Modern_marine_glass_biofilm.082.2k.fna
Modern_marine_glass_biofilm.086.2k	results/annotation/Modern_marine_glass_biofilm.086.2k/Modern_marine_glass_biofilm.086.2k.fna
Modern_marine_glass_biofilm.088.2k	results/annotation/Modern_marine_glass_biofilm.088.2k/Modern_marine_glass_biofilm.088.2k.fna
Modern_marine_glass_biofilm.094.2k	results/annotation/Modern_marine_glass_biofilm.094.2k/Modern_marine_glass_biofilm.094.2k.fna
Modern_marine_glass_biofilm.099.2k	results/annotation/Modern_marine_glass_biofilm.099.2k/Modern_marine_glass_biofilm.099.2k.fna
Modern_marine_glass_biofilm.101.2k	results/annotation/Modern_marine_glass_biofilm.101.2k/Modern_marine_glass_biofilm.101.2k.fna
Modern_marine_glass_biofilm.102.2k	results/annotation/Modern_marine_glass_biofilm.102.2k/Modern_marine_glass_biofilm.102.2k.fna
Modern_marine_glass_biofilm.108.2k	results/annotation/Modern_marine_glass_biofilm.108.2k/Modern_marine_glass_biofilm.108.2k.fna
Modern_marine_glass_biofilm.112.2k	results/annotation/Modern_marine_glass_biofilm.112.2k/Modern_marine_glass_biofilm.112.2k.fna
Modern_marine_glass_biofilm.117.2k	results/annotation/Modern_marine_glass_biofilm.117.2k/Modern_marine_glass_biofilm.117.2k.fna
Modern_marine_glass_biofilm.125.2k	results/annotation/Modern_marine_glass_biofilm.125.2k/Modern_marine_glass_biofilm.125.2k.fna
Modern_marine_planktonic.017.2k	results/annotation/Modern_marine_planktonic.017.2k/Modern_marine_planktonic.017.2k.fna
Modern_marine_planktonic.021.2k	results/annotation/Modern_marine_planktonic.021.2k/Modern_marine_planktonic.021.2k.fna
Modern_marine_planktonic.023.2k	results/annotation/Modern_marine_planktonic.023.2k/Modern_marine_planktonic.023.2k.fna
Modern_marine_planktonic.025.2k	results/annotation/Modern_marine_planktonic.025.2k/Modern_marine_planktonic.025.2k.fna
Modern_marine_planktonic.030.2k	results/annotation/Modern_marine_planktonic.030.2k/Modern_marine_planktonic.030.2k.fna
Modern_marine_planktonic.032.2k	results/annotation/Modern_marine_planktonic.032.2k/Modern_marine_planktonic.032.2k.fna
Modern_marine_planktonic.033.2k	results/annotation/Modern_marine_planktonic.033.2k/Modern_marine_planktonic.033.2k.fna
Modern_marine_planktonic.035.2k	results/annotation/Modern_marine_planktonic.035.2k/Modern_marine_planktonic.035.2k.fna
Modern_marine_planktonic.041.2k	results/annotation/Modern_marine_planktonic.041.2k/Modern_marine_planktonic.041.2k.fna
Modern_marine_planktonic.047.2k	results/annotation/Modern_marine_planktonic.047.2k/Modern_marine_planktonic.047.2k.fna
Modern_marine_rock_biofilm.001.2k	results/annotation/Modern_marine_rock_biofilm.001.2k/Modern_marine_rock_biofilm.001.2k.fna
Modern_marine_rock_biofilm.004.2k	results/annotation/Modern_marine_rock_biofilm.004.2k/Modern_marine_rock_biofilm.004.2k.fna
Modern_marine_rock_biofilm.007.2k	results/annotation/Modern_marine_rock_biofilm.007.2k/Modern_marine_rock_biofilm.007.2k.fna
Modern_marine_rock_biofilm.035.2k	results/annotation/Modern_marine_rock_biofilm.035.2k/Modern_marine_rock_biofilm.035.2k.fna
Modern_marine_rock_biofilm.036.2k	results/annotation/Modern_marine_rock_biofilm.036.2k/Modern_marine_rock_biofilm.036.2k.fna
Modern_marine_rock_biofilm.041.2k	results/annotation/Modern_marine_rock_biofilm.041.2k/Modern_marine_rock_biofilm.041.2k.fna
Modern_marine_rock_biofilm.042.2k	results/annotation/Modern_marine_rock_biofilm.042.2k/Modern_marine_rock_biofilm.042.2k.fna
Modern_marine_rock_biofilm.054.2k	results/annotation/Modern_marine_rock_biofilm.054.2k/Modern_marine_rock_biofilm.054.2k.fna
Modern_marine_rock_biofilm.065.2k	results/annotation/Modern_marine_rock_biofilm.065.2k/Modern_marine_rock_biofilm.065.2k.fna
Modern_marine_rock_biofilm.066.2k	results/annotation/Modern_marine_rock_biofilm.066.2k/Modern_marine_rock_biofilm.066.2k.fna
Modern_marine_rock_biofilm.067.2k	results/annotation/Modern_marine_rock_biofilm.067.2k/Modern_marine_rock_biofilm.067.2k.fna
Modern_marine_rock_biofilm.069.2k	results/annotation/Modern_marine_rock_biofilm.069.2k/Modern_marine_rock_biofilm.069.2k.fna
Modern_marine_rock_biofilm.074.2k	results/annotation/Modern_marine_rock_biofilm.074.2k/Modern_marine_rock_biofilm.074.2k.fna
Modern_marine_rock_biofilm.075.2k	results/annotation/Modern_marine_rock_biofilm.075.2k/Modern_marine_rock_biofilm.075.2k.fna
Modern_marine_rock_biofilm.087.2k	results/annotation/Modern_marine_rock_biofilm.087.2k/Modern_marine_rock_biofilm.087.2k.fna
Modern_marine_rock_biofilm.089.2k	results/annotation/Modern_marine_rock_biofilm.089.2k/Modern_marine_rock_biofilm.089.2k.fna
Modern_marine_rock_biofilm.093.2k	results/annotation/Modern_marine_rock_biofilm.093.2k/Modern_marine_rock_biofilm.093.2k.fna
OSL_A.004.2k	results/annotation/OSL_A.004.2k/OSL_A.004.2k.fna
OSL_A.008.2k	results/annotation/OSL_A.008.2k/OSL_A.008.2k.fna
OSL_A.009.2k	results/annotation/OSL_A.009.2k/OSL_A.009.2k.fna
OSL_A.013.2k	results/annotation/OSL_A.013.2k/OSL_A.013.2k.fna
OSL_A.015.2k	results/annotation/OSL_A.015.2k/OSL_A.015.2k.fna
OSL_A.019.2k	results/annotation/OSL_A.019.2k/OSL_A.019.2k.fna
OSL_A.020.2k	results/annotation/OSL_A.020.2k/OSL_A.020.2k.fna
OSL_A.022.2k	results/annotation/OSL_A.022.2k/OSL_A.022.2k.fna
OSL_A.026.2k	results/annotation/OSL_A.026.2k/OSL_A.026.2k.fna
OSL_A.030.2k	results/annotation/OSL_A.030.2k/OSL_A.030.2k.fna
OSL_A.031.2k	results/annotation/OSL_A.031.2k/OSL_A.031.2k.fna
OSL_B.003.2k	results/annotation/OSL_B.003.2k/OSL_B.003.2k.fna
OSS_A.003.2k	results/annotation/OSS_A.003.2k/OSS_A.003.2k.fna
OSS_A.040.2k	results/annotation/OSS_A.040.2k/OSS_A.040.2k.fna
OSS_B.005.2k	results/annotation/OSS_B.005.2k/OSS_B.005.2k.fna
OSS_B.016.2k	results/annotation/OSS_B.016.2k/OSS_B.016.2k.fna
OSS_B.025.2k	results/annotation/OSS_B.025.2k/OSS_B.025.2k.fna
OSS_B.037.2k	results/annotation/OSS_B.037.2k/OSS_B.037.2k.fna
OSS_B.038.2k	results/annotation/OSS_B.038.2k/OSS_B.038.2k.fna
OSS_B.041.2k	results/annotation/OSS_B.041.2k/OSS_B.041.2k.fna
OS_PC_MetaG.007.2k	results/annotation/OS_PC_MetaG.007.2k/OS_PC_MetaG.007.2k.fna
OS_PC_MetaG.013.2k	results/annotation/OS_PC_MetaG.013.2k/OS_PC_MetaG.013.2k.fna
OS_PC_MetaG.016.2k	results/annotation/OS_PC_MetaG.016.2k/OS_PC_MetaG.016.2k.fna
OS_PC_MetaG.021.2k	results/annotation/OS_PC_MetaG.021.2k/OS_PC_MetaG.021.2k.fna
OS_PC_MetaG.023.2k	results/annotation/OS_PC_MetaG.023.2k/OS_PC_MetaG.023.2k.fna
OS_PC_MetaG.029.2k	results/annotation/OS_PC_MetaG.029.2k/OS_PC_MetaG.029.2k.fna
OS_PC_MetaG.034.2k	results/annotation/OS_PC_MetaG.034.2k/OS_PC_MetaG.034.2k.fna
OS_PC_MetaG.042.2k	results/annotation/OS_PC_MetaG.042.2k/OS_PC_MetaG.042.2k.fna
OS_PC_MetaG.045.2k	results/annotation/OS_PC_MetaG.045.2k/OS_PC_MetaG.045.2k.fna
OS_PC_MetaG.049.2k	results/annotation/OS_PC_MetaG.049.2k/OS_PC_MetaG.049.2k.fna
OS_PC_MetaG.053.2k	results/annotation/OS_PC_MetaG.053.2k/OS_PC_MetaG.053.2k.fna
OS_PC_MetaG.056.2k	results/annotation/OS_PC_MetaG.056.2k/OS_PC_MetaG.056.2k.fna
OS_PC_MetaG.058.2k	results/annotation/OS_PC_MetaG.058.2k/OS_PC_MetaG.058.2k.fna
OS_PC_MetaG.061.2k	results/annotation/OS_PC_MetaG.061.2k/OS_PC_MetaG.061.2k.fna
OS_PC_MetaG.064.2k	results/annotation/OS_PC_MetaG.064.2k/OS_PC_MetaG.064.2k.fna
OS_PC_MetaG.075.2k	results/annotation/OS_PC_MetaG.075.2k/OS_PC_MetaG.075.2k.fna
OS_PC_MetaG.077.2k	results/annotation/OS_PC_MetaG.077.2k/OS_PC_MetaG.077.2k.fna
OS_PC_MetaG.084.2k	results/annotation/OS_PC_MetaG.084.2k/OS_PC_MetaG.084.2k.fna
OS_PC_MetaG.086.2k	results/annotation/OS_PC_MetaG.086.2k/OS_PC_MetaG.086.2k.fna
OS_PC_MetaG.087.2k	results/annotation/OS_PC_MetaG.087.2k/OS_PC_MetaG.087.2k.fna
OS_PC_MetaG.088.2k	results/annotation/OS_PC_MetaG.088.2k/OS_PC_MetaG.088.2k.fna
OS_PC_MetaG.096.2k	results/annotation/OS_PC_MetaG.096.2k/OS_PC_MetaG.096.2k.fna
OS_PC_MetaG.097.2k	results/annotation/OS_PC_MetaG.097.2k/OS_PC_MetaG.097.2k.fna
OS_PC_MetaG.108.2k	results/annotation/OS_PC_MetaG.108.2k/OS_PC_MetaG.108.2k.fna
OS_PC_MetaG.122.2k	results/annotation/OS_PC_MetaG.122.2k/OS_PC_MetaG.122.2k.fna
OS_PC_MetaG.128.2k	results/annotation/OS_PC_MetaG.128.2k/OS_PC_MetaG.128.2k.fna
OS_PC_MetaG.136.2k	results/annotation/OS_PC_MetaG.136.2k/OS_PC_MetaG.136.2k.fna
OS_PC_MetaG.137.2k	results/annotation/OS_PC_MetaG.137.2k/OS_PC_MetaG.137.2k.fna
OS_PC_MetaG.140.2k	results/annotation/OS_PC_MetaG.140.2k/OS_PC_MetaG.140.2k.fna
OS_PC_MetaG.143.2k	results/annotation/OS_PC_MetaG.143.2k/OS_PC_MetaG.143.2k.fna
OS_PC_MetaG.145.2k	results/annotation/OS_PC_MetaG.145.2k/OS_PC_MetaG.145.2k.fna
OS_PC_MetaG.146.2k	results/annotation/OS_PC_MetaG.146.2k/OS_PC_MetaG.146.2k.fna
OS_PC_MetaG.147.2k	results/annotation/OS_PC_MetaG.147.2k/OS_PC_MetaG.147.2k.fna
OS_PC_MetaG.157.2k	results/annotation/OS_PC_MetaG.157.2k/OS_PC_MetaG.157.2k.fna
OS_PC_MetaG.158.2k	results/annotation/OS_PC_MetaG.158.2k/OS_PC_MetaG.158.2k.fna
OS_PC_MetaG.163.2k	results/annotation/OS_PC_MetaG.163.2k/OS_PC_MetaG.163.2k.fna
OS_PC_MetaG.164.2k	results/annotation/OS_PC_MetaG.164.2k/OS_PC_MetaG.164.2k.fna
OS_PC_MetaG.174.2k	results/annotation/OS_PC_MetaG.174.2k/OS_PC_MetaG.174.2k.fna
OS_PC_MetaG.184.2k	results/annotation/OS_PC_MetaG.184.2k/OS_PC_MetaG.184.2k.fna
OS_PC_MetaG.186.2k	results/annotation/OS_PC_MetaG.186.2k/OS_PC_MetaG.186.2k.fna
OS_PC_MetaG.193.2k	results/annotation/OS_PC_MetaG.193.2k/OS_PC_MetaG.193.2k.fna
Old_saline.005.2k	results/annotation/Old_saline.005.2k/Old_saline.005.2k.fna
Old_saline.006.2k	results/annotation/Old_saline.006.2k/Old_saline.006.2k.fna
Old_saline.012.2k	results/annotation/Old_saline.012.2k/Old_saline.012.2k.fna
Old_saline.013.2k	results/annotation/Old_saline.013.2k/Old_saline.013.2k.fna
Old_saline.015.2k	results/annotation/Old_saline.015.2k/Old_saline.015.2k.fna
Old_saline.022.2k	results/annotation/Old_saline.022.2k/Old_saline.022.2k.fna
Old_saline.028.2k	results/annotation/Old_saline.028.2k/Old_saline.028.2k.fna
Old_saline.031.2k	results/annotation/Old_saline.031.2k/Old_saline.031.2k.fna
Old_saline.033.2k	results/annotation/Old_saline.033.2k/Old_saline.033.2k.fna
Old_saline.035.2k	results/annotation/Old_saline.035.2k/Old_saline.035.2k.fna
Old_saline.037.2k	results/annotation/Old_saline.037.2k/Old_saline.037.2k.fna
Old_saline.041.2k	results/annotation/Old_saline.041.2k/Old_saline.041.2k.fna
Old_saline.045.2k	results/annotation/Old_saline.045.2k/Old_saline.045.2k.fna
Old_saline.046.2k	results/annotation/Old_saline.046.2k/Old_saline.046.2k.fna
Old_saline.048.2k	results/annotation/Old_saline.048.2k/Old_saline.048.2k.fna
Old_saline.051.2k	results/annotation/Old_saline.051.2k/Old_saline.051.2k.fna
Old_saline.053.2k	results/annotation/Old_saline.053.2k/Old_saline.053.2k.fna
Old_saline.057.2k	results/annotation/Old_saline.057.2k/Old_saline.057.2k.fna
Old_saline.059.2k	results/annotation/Old_saline.059.2k/Old_saline.059.2k.fna
Old_saline.060.2k	results/annotation/Old_saline.060.2k/Old_saline.060.2k.fna
Old_saline.064.2k	results/annotation/Old_saline.064.2k/Old_saline.064.2k.fna
Old_saline.068.2k	results/annotation/Old_saline.068.2k/Old_saline.068.2k.fna
Old_saline.073.2k	results/annotation/Old_saline.073.2k/Old_saline.073.2k.fna
Old_saline.076.2k	results/annotation/Old_saline.076.2k/Old_saline.076.2k.fna
Old_saline.077.2k	results/annotation/Old_saline.077.2k/Old_saline.077.2k.fna
Old_saline.085.2k	results/annotation/Old_saline.085.2k/Old_saline.085.2k.fna
Old_saline.087.2k	results/annotation/Old_saline.087.2k/Old_saline.087.2k.fna
Old_saline.095.2k	results/annotation/Old_saline.095.2k/Old_saline.095.2k.fna
Old_saline.096.2k	results/annotation/Old_saline.096.2k/Old_saline.096.2k.fna
Old_saline.102.2k	results/annotation/Old_saline.102.2k/Old_saline.102.2k.fna
Old_saline.103.2k	results/annotation/Old_saline.103.2k/Old_saline.103.2k.fna
Old_saline.104.2k	results/annotation/Old_saline.104.2k/Old_saline.104.2k.fna
Old_saline.107.2k	results/annotation/Old_saline.107.2k/Old_saline.107.2k.fna
Old_saline.108.2k	results/annotation/Old_saline.108.2k/Old_saline.108.2k.fna
Old_saline.110.2k	results/annotation/Old_saline.110.2k/Old_saline.110.2k.fna
Old_saline_glass_biofilm.011.2k	results/annotation/Old_saline_glass_biofilm.011.2k/Old_saline_glass_biofilm.011.2k.fna
Old_saline_planktonic.001.2k	results/annotation/Old_saline_planktonic.001.2k/Old_saline_planktonic.001.2k.fna
Old_saline_planktonic.002.2k	results/annotation/Old_saline_planktonic.002.2k/Old_saline_planktonic.002.2k.fna
Old_saline_planktonic.003.2k	results/annotation/Old_saline_planktonic.003.2k/Old_saline_planktonic.003.2k.fna
Old_saline_planktonic.009.2k	results/annotation/Old_saline_planktonic.009.2k/Old_saline_planktonic.009.2k.fna
Old_saline_planktonic.012.2k	results/annotation/Old_saline_planktonic.012.2k/Old_saline_planktonic.012.2k.fna
Old_saline_planktonic.017.2k	results/annotation/Old_saline_planktonic.017.2k/Old_saline_planktonic.017.2k.fna
Old_saline_planktonic.037.2k	results/annotation/Old_saline_planktonic.037.2k/Old_saline_planktonic.037.2k.fna
Old_saline_planktonic.038.2k	results/annotation/Old_saline_planktonic.038.2k/Old_saline_planktonic.038.2k.fna
Old_saline_planktonic.048.2k	results/annotation/Old_saline_planktonic.048.2k/Old_saline_planktonic.048.2k.fna
Old_saline_planktonic.051.2k	results/annotation/Old_saline_planktonic.051.2k/Old_saline_planktonic.051.2k.fna
Old_saline_planktonic.052.2k	results/annotation/Old_saline_planktonic.052.2k/Old_saline_planktonic.052.2k.fna
Old_saline_planktonic.053.2k	results/annotation/Old_saline_planktonic.053.2k/Old_saline_planktonic.053.2k.fna
Old_saline_planktonic.068.2k	results/annotation/Old_saline_planktonic.068.2k/Old_saline_planktonic.068.2k.fna
Old_saline_planktonic.071.2k	results/annotation/Old_saline_planktonic.071.2k/Old_saline_planktonic.071.2k.fna
Old_saline_planktonic.080.2k	results/annotation/Old_saline_planktonic.080.2k/Old_saline_planktonic.080.2k.fna
Old_saline_planktonic.081.2k	results/annotation/Old_saline_planktonic.081.2k/Old_saline_planktonic.081.2k.fna
Old_saline_planktonic.083.2k	results/annotation/Old_saline_planktonic.083.2k/Old_saline_planktonic.083.2k.fna
Old_saline_planktonic.084.2k	results/annotation/Old_saline_planktonic.084.2k/Old_saline_planktonic.084.2k.fna
Old_saline_planktonic.085.2k	results/annotation/Old_saline_planktonic.085.2k/Old_saline_planktonic.085.2k.fna
Old_saline_rock_biofilm.004.2k	results/annotation/Old_saline_rock_biofilm.004.2k/Old_saline_rock_biofilm.004.2k.fna
Old_saline_rock_biofilm.005.2k	results/annotation/Old_saline_rock_biofilm.005.2k/Old_saline_rock_biofilm.005.2k.fna
Old_saline_rock_biofilm.009.2k	results/annotation/Old_saline_rock_biofilm.009.2k/Old_saline_rock_biofilm.009.2k.fna
Old_saline_rock_biofilm.011.2k	results/annotation/Old_saline_rock_biofilm.011.2k/Old_saline_rock_biofilm.011.2k.fna
UML_A.017.2k	results/annotation/UML_A.017.2k/UML_A.017.2k.fna
UML_B.004.2k	results/annotation/UML_B.004.2k/UML_B.004.2k.fna
UML_B.017.2k	results/annotation/UML_B.017.2k/UML_B.017.2k.fna
UMPL_A_19	results/annotation/UMPL_A_19/UMPL_A_19.fna
UMPL_A_26	results/annotation/UMPL_A_26/UMPL_A_26.fna
UMPL_B_25	results/annotation/UMPL_B_25/UMPL_B_25.fna
UMPL_B_35	results/annotation/UMPL_B_35/UMPL_B_35.fna
UMPL_B_40	results/annotation/UMPL_B_40/UMPL_B_40.fna
UMS_A.002.2k	results/annotation/UMS_A.002.2k/UMS_A.002.2k.fna
UMS_A.003.2k	results/annotation/UMS_A.003.2k/UMS_A.003.2k.fna
UMS_A.009.2k	results/annotation/UMS_A.009.2k/UMS_A.009.2k.fna
UMS_A.021.2k	results/annotation/UMS_A.021.2k/UMS_A.021.2k.fna
UMS_A.024.2k	results/annotation/UMS_A.024.2k/UMS_A.024.2k.fna
UMS_B.006.2k	results/annotation/UMS_B.006.2k/UMS_B.006.2k.fna
UMS_B.018.2k	results/annotation/UMS_B.018.2k/UMS_B.018.2k.fna
UMS_B.029.2k	results/annotation/UMS_B.029.2k/UMS_B.029.2k.fna
Undefined_mixed_planktonic.001.2k	results/annotation/Undefined_mixed_planktonic.001.2k/Undefined_mixed_planktonic.001.2k.fna
Undefined_mixed_planktonic.010.2k	results/annotation/Undefined_mixed_planktonic.010.2k/Undefined_mixed_planktonic.010.2k.fna
Undefined_mixed_planktonic.011.2k	results/annotation/Undefined_mixed_planktonic.011.2k/Undefined_mixed_planktonic.011.2k.fna
Undefined_mixed_planktonic.012.2k	results/annotation/Undefined_mixed_planktonic.012.2k/Undefined_mixed_planktonic.012.2k.fna
Undefined_mixed_planktonic.013.2k	results/annotation/Undefined_mixed_planktonic.013.2k/Undefined_mixed_planktonic.013.2k.fna
Undefined_mixed_planktonic.018.2k	results/annotation/Undefined_mixed_planktonic.018.2k/Undefined_mixed_planktonic.018.2k.fna
Undefined_mixed_planktonic.069.2k	results/annotation/Undefined_mixed_planktonic.069.2k/Undefined_mixed_planktonic.069.2k.fna
Undefined_mixed_planktonic.076.2k	results/annotation/Undefined_mixed_planktonic.076.2k/Undefined_mixed_planktonic.076.2k.fna
Undefined_mixed_planktonic.078.2k	results/annotation/Undefined_mixed_planktonic.078.2k/Undefined_mixed_planktonic.078.2k.fna
Undefined_mixed_planktonic.079.2k	results/annotation/Undefined_mixed_planktonic.079.2k/Undefined_mixed_planktonic.079.2k.fna
Undefined_mixed_planktonic.081.2k	results/annotation/Undefined_mixed_planktonic.081.2k/Undefined_mixed_planktonic.081.2k.fna
Undefined_mixed_planktonic.082.2k	results/annotation/Undefined_mixed_planktonic.082.2k/Undefined_mixed_planktonic.082.2k.fna
Undefined_mixed_planktonic.093.2k	results/annotation/Undefined_mixed_planktonic.093.2k/Undefined_mixed_planktonic.093.2k.fna
Undefined_mixed_planktonic.100.2k	results/annotation/Undefined_mixed_planktonic.100.2k/Undefined_mixed_planktonic.100.2k.fna
Undefined_mixed_planktonic.101.2k	results/annotation/Undefined_mixed_planktonic.101.2k/Undefined_mixed_planktonic.101.2k.fna
Undefined_mixed_planktonic.103.2k	results/annotation/Undefined_mixed_planktonic.103.2k/Undefined_mixed_planktonic.103.2k.fna
Undefined_mixed_planktonic.104.2k	results/annotation/Undefined_mixed_planktonic.104.2k/Undefined_mixed_planktonic.104.2k.fna
Undefined_mixed_planktonic.105.2k	results/annotation/Undefined_mixed_planktonic.105.2k/Undefined_mixed_planktonic.105.2k.fna
