Bin Id	Marker lineage	# genomes	# markers	# marker sets	Completeness	Contamination	Strain heterogeneity	Genome size (bp)	# ambiguous bases	# scaffolds	# contigs	N50 (scaffolds)	N50 (contigs)	Mean scaffold length (bp)	Mean contig length (bp)	Longest scaffold (bp)	Longest contig (bp)	GC	GC std (scaffolds > 1kbp)	Coding density	Translation table	# predicted genes	0	1	2	3	4	5+
OSS_A.001	Prokaryote (-1)	5656	56	24	0.00	0.00	0.00	119807	0	54	54	3558	3558	2218	2218	15896	15896	40.6	3.53	85.89	11	214	56	0	0	0	0	0
OSS_A.002	Prokaryote (-1)	5656	56	24	6.49	0.00	0.00	491538	0	385	385	1490	1490	1276	1276	41262	41262	40.1	6.70	88.62	11	992	50	6	0	0	0	0
OSS_A.003	Prokaryote (-1)	5656	56	24	86.14	0.52	0.00	2890343	0	2005	2005	1740	1740	1441	1441	33236	33236	52.8	2.90	92.80	11	4377	10	45	1	0	0	0
OSS_A.004	Prokaryote (-1)	5656	56	24	0.00	0.00	0.00	139582	0	46	46	4838	4838	3034	3034	65967	65967	45.8	7.47	91.92	11	257	56	0	0	0	0	0
OSS_A.005	Prokaryote (-1)	5656	56	24	14.81	7.41	36.36	274146	0	169	169	2412	2412	1622	1622	10751	10751	63.8	3.05	90.93	11	317	44	6	5	0	1	0
OSS_A.006	Prokaryote (-1)	5656	56	24	27.78	0.93	50.00	139517	0	40	40	18928	18928	3487	3487	33984	33984	54.4	7.98	83.60	11	146	34	20	2	0	0	0
OSS_A.007	Prokaryote (-1)	5656	56	24	67.89	10.36	80.00	1143196	0	670	670	2318	2318	1706	1706	14236	14236	61.7	1.81	91.04	11	1544	21	30	5	0	0	0
OSS_A.008	Prokaryote (-1)	5656	56	24	99.54	7.18	33.33	3656923	0	792	792	11682	11682	4617	4617	68342	68342	66.9	5.46	90.15	11	4108	1	49	6	0	0	0
OSS_A.009	Prokaryote (-1)	5656	56	24	0.00	0.00	0.00	125368	0	87	87	2013	2013	1441	1441	21695	21695	64.5	3.89	90.61	11	191	56	0	0	0	0	0
OSS_A.010	Prokaryote (-1)	5656	56	24	0.00	0.00	0.00	542343	0	308	308	2175	2175	1760	1760	55003	55003	38.1	6.83	92.02	11	1078	56	0	0	0	0	0
OSS_A.011	Prokaryote (-1)	5656	56	24	7.01	0.00	0.00	1006687	0	1059	1059	936	936	950	950	40807	40807	57.9	11.64	87.40	11	1858	51	5	0	0	0	0
OSS_A.012	Prokaryote (-1)	5656	56	24	11.87	21.99	19.51	228280	0	116	116	3566	3566	1967	1967	32848	32848	67.4	3.44	89.99	11	267	41	4	3	3	0	5
OSS_A.013	Prokaryote (-1)	5656	56	24	23.76	5.21	0.00	2308177	0	1715	1715	1751	1751	1345	1345	95867	95867	59.0	6.45	88.78	11	3928	47	7	2	0	0	0
OSS_A.014	Prokaryote (-1)	5656	56	24	60.42	37.27	38.96	1245315	0	463	463	4336	4336	2689	2689	112769	112769	61.0	4.83	90.30	11	1420	11	27	8	5	3	2
OSS_A.015	Prokaryote (-1)	5656	56	24	0.00	0.00	0.00	261067	0	144	144	3221	3221	1812	1812	18460	18460	44.7	3.09	89.38	11	459	56	0	0	0	0	0
OSS_A.016	Prokaryote (-1)	5656	56	24	35.20	15.34	100.00	8699270	0	5303	5303	2047	2047	1640	1640	196293	196293	57.6	7.46	87.80	11	13038	41	9	6	0	0	0
OSS_A.017	Prokaryote (-1)	5656	56	24	85.19	27.84	11.11	4385232	0	333	333	252830	252830	13168	13168	870922	870922	63.5	3.10	89.64	11	4478	11	36	9	0	0	0
OSS_A.018	Prokaryote (-1)	5656	56	24	78.52	6.20	100.00	1708513	0	479	479	10914	10914	3566	3566	91608	91608	59.3	7.90	89.02	11	1834	18	32	6	0	0	0
OSS_A.019	Prokaryote (-1)	5656	56	24	31.00	2.31	0.00	652896	0	392	392	2562	2562	1665	1665	30690	30690	63.4	5.78	89.61	11	858	38	15	1	2	0	0
OSS_A.020	Prokaryote (-1)	5656	56	24	18.00	0.00	0.00	1530400	0	1309	1309	1328	1328	1169	1169	37352	37352	57.5	11.95	87.81	11	2519	45	11	0	0	0	0
OSS_A.021	Prokaryote (-1)	5656	56	24	71.88	62.02	3.26	2659526	0	727	727	8990	8990	3658	3658	82160	82160	63.3	4.53	90.70	11	3001	12	22	9	4	6	3
OSS_A.022	Prokaryote (-1)	5656	56	24	68.70	43.56	16.67	2611790	0	1045	1045	5307	5307	2499	2499	49589	49589	64.9	3.96	90.79	11	3300	29	15	9	3	0	0
OSS_A.023	Prokaryote (-1)	5656	56	24	53.36	12.56	100.00	3887453	0	1025	1025	11062	11062	3792	3792	71943	71943	60.3	3.84	88.70	11	4163	33	16	7	0	0	0
OSS_A.024	Prokaryote (-1)	5656	56	24	61.25	16.90	66.67	1348734	0	323	323	9514	9514	4175	4175	46934	46934	60.9	3.26	91.14	11	1416	18	30	6	2	0	0
OSS_A.025	Prokaryote (-1)	5656	56	24	69.93	31.49	4.00	4112615	0	1806	1806	3419	3419	2277	2277	53921	53921	61.8	4.50	88.69	11	5299	13	25	16	1	1	0
OSS_A.026	Prokaryote (-1)	5656	56	24	63.22	11.91	26.67	1662297	0	296	296	14932	14932	5615	5615	77160	77160	58.4	5.36	89.92	11	1714	14	27	15	0	0	0
OSS_A.027	Prokaryote (-1)	5656	56	24	50.00	31.52	0.00	1385587	0	734	734	4465	4465	1887	1887	110340	110340	49.8	12.79	90.53	11	1923	19	10	16	9	2	0
OSS_A.028	Prokaryote (-1)	5656	56	24	0.93	0.00	0.00	718171	0	359	359	3565	3565	2000	2000	162006	162006	61.6	2.65	88.02	11	1011	54	2	0	0	0	0
OSS_A.029	Prokaryote (-1)	5656	56	24	4.17	0.00	0.00	104465	0	76	76	1905	1905	1374	1374	12316	12316	65.2	2.87	89.22	11	166	55	1	0	0	0	0
OSS_A.030	Prokaryote (-1)	5656	56	24	100.00	67.19	25.17	5799700	0	281	281	306581	306581	20639	20639	649378	649378	63.4	4.04	89.28	11	5378	0	29	16	0	5	6
OSS_A.031	Prokaryote (-1)	5656	56	24	61.11	26.80	18.75	1914613	0	243	243	38882	38882	7879	7879	177012	177012	67.9	6.85	91.06	11	1982	17	25	13	1	0	0
OSS_A.032	Prokaryote (-1)	5656	56	24	44.17	14.58	33.33	2035235	0	659	659	9330	9330	3088	3088	131810	131810	67.1	6.19	91.23	11	2372	30	22	3	1	0	0
OSS_A.033	Prokaryote (-1)	5656	56	24	76.39	54.80	42.31	4843422	0	1685	1685	6617	6617	2874	2874	164603	164603	67.1	4.22	90.53	11	6042	12	21	10	6	5	2
OSS_A.034	Prokaryote (-1)	5656	56	24	87.50	16.86	9.09	4588870	0	211	211	210237	210237	21748	21748	468038	468038	64.5	3.07	90.72	11	4450	12	33	11	0	0	0
OSS_A.035	Prokaryote (-1)	5656	56	24	93.98	61.54	35.00	1703083	0	428	428	37369	37369	3979	3979	162201	162201	68.5	4.27	91.78	11	1871	5	17	31	3	0	0
OSS_A.036	Prokaryote (-1)	5656	56	24	89.70	38.54	29.63	3272680	0	721	721	8890	8890	4539	4539	54763	54763	68.7	3.14	90.92	11	3819	11	28	12	5	0	0
OSS_A.037	Prokaryote (-1)	5656	56	24	46.71	29.17	50.00	2570402	0	298	298	32197	32197	8625	8625	253583	253583	67.4	2.75	91.49	11	2718	37	11	8	0	0	0
OSS_A.038	Prokaryote (-1)	5656	56	24	6.13	0.00	0.00	489698	0	379	379	1378	1378	1292	1292	47706	47706	50.2	10.96	90.88	11	782	52	4	0	0	0	0
OSS_A.039	Prokaryote (-1)	5656	56	24	42.46	12.50	0.00	4072283	0	615	615	50117	50117	6621	6621	168846	168846	68.3	3.50	90.84	11	4325	35	18	3	0	0	0
OSS_A.040	Prokaryote (-1)	5656	56	24	45.81	14.70	22.22	5259043	0	1097	1097	12252	12252	4794	4794	156012	156012	60.6	4.09	89.08	11	5709	33	16	6	1	0	0
OSS_A.041	Prokaryote (-1)	5656	56	24	23.43	7.24	88.89	1428060	0	227	227	16336	16336	6291	6291	57792	57792	59.9	4.45	89.97	11	1498	36	11	9	0	0	0
OSS_A.042	Prokaryote (-1)	5656	56	24	46.69	22.49	0.00	3833719	0	2524	2524	2097	2097	1518	1518	130300	130300	66.5	5.32	91.27	11	5770	26	24	4	1	1	0
OSS_A.043	Prokaryote (-1)	5656	56	24	74.67	45.21	12.00	11340183	0	8440	8440	1573	1573	1343	1343	52384	52384	59.4	4.54	89.26	11	18364	16	21	16	3	0	0
OSS_A.044	Prokaryote (-1)	5656	56	24	64.30	18.75	50.00	3590273	0	327	327	38242	38242	10979	10979	120800	120800	68.6	2.55	91.52	11	3762	33	19	2	2	0	0
OSS_A.045	Prokaryote (-1)	5656	56	24	16.24	0.00	0.00	1297978	0	725	725	2435	2435	1790	1790	62446	62446	56.6	10.70	90.43	11	2133	45	11	0	0	0	0
OSS_A.046	Prokaryote (-1)	5656	56	24	49.43	22.74	12.50	9635100	0	8274	8274	1271	1271	1164	1164	77213	77213	65.2	5.88	89.52	11	16179	35	15	5	1	0	0
OSS_A.047	Prokaryote (-1)	5656	56	24	0.00	0.00	0.00	2117548	0	1192	1192	2388	2388	1776	1776	56536	56536	45.9	7.68	92.10	11	3924	56	0	0	0	0	0
OSS_A.048	Prokaryote (-1)	5656	56	24	73.01	2.08	0.00	3836085	0	371	371	71881	71881	10339	10339	316467	316467	64.2	2.70	89.60	11	3989	19	36	1	0	0	0
OSS_A.049	Prokaryote (-1)	5656	56	24	53.45	36.46	0.00	21480312	0	18002	18002	1261	1261	1193	1193	186775	186775	62.0	3.60	87.76	11	36746	36	10	8	2	0	0
OSS_A.050	Prokaryote (-1)	5656	56	24	50.47	21.97	22.22	4880590	0	1375	1375	14768	14768	3549	3549	171367	171367	66.9	3.60	91.03	11	5888	36	13	6	1	0	0
OSS_A.051	Prokaryote (-1)	5656	56	24	9.72	0.00	0.00	41376632	0	30947	30947	1570	1570	1337	1337	44495	44495	44.9	7.24	92.17	11	86986	50	6	0	0	0	0
OSS_A.052	Prokaryote (-1)	5656	56	24	69.92	29.50	5.00	53320259	0	56993	56993	883	883	935	935	102287	102287	46.7	8.47	90.55	11	118355	29	18	7	1	0	1
OSS_A.053	Prokaryote (-1)	5656	56	24	72.57	4.55	50.00	3009525	0	1179	1179	4495	4495	2552	2552	48608	48608	47.4	6.10	92.12	11	5022	17	37	2	0	0	0
OSS_A.054	Prokaryote (-1)	5656	56	24	66.67	48.42	13.56	2041908	0	434	434	39415	39415	4704	4704	182751	182751	45.8	6.16	88.53	11	2376	9	17	17	12	1	0
OSS_A.055	Prokaryote (-1)	5656	56	24	64.85	12.50	0.00	33720832	0	36709	36709	880	880	918	918	103670	103670	44.3	7.87	91.73	11	75619	32	21	3	0	0	0
OSS_A.056	Prokaryote (-1)	5656	56	24	63.43	0.00	0.00	4770054	0	912	912	11307	11307	5230	5230	62388	62388	43.0	4.64	89.37	11	5395	37	19	0	0	0	0
OSS_A.057	Prokaryote (-1)	5656	56	24	34.29	20.31	12.50	9325327	0	9107	9107	1073	1073	1023	1023	91186	91186	48.9	5.81	90.62	11	16943	38	12	5	1	0	0
OSS_A.058	Prokaryote (-1)	5656	56	24	62.57	23.32	58.33	5343102	0	590	590	56325	56325	9056	9056	167892	167892	45.7	5.15	86.34	11	5092	20	26	9	1	0	0
OSS_A.059	Prokaryote (-1)	5656	56	24	60.42	4.17	0.00	4488906	0	392	392	47636	47636	11451	11451	185802	185802	46.0	4.06	89.66	11	4256	39	16	1	0	0	0
OSS_A.060	Prokaryote (-1)	5656	56	24	0.00	0.00	0.00	174419	0	114	114	2205	2205	1529	1529	25814	25814	48.7	4.88	92.59	11	312	56	0	0	0	0	0
OSS_A.061	Prokaryote (-1)	5656	56	24	38.21	0.52	100.00	4014672	0	913	913	8585	8585	4397	4397	51793	51793	47.8	2.97	88.35	11	4086	37	18	1	0	0	0
