Bin Id	Marker lineage	# genomes	# markers	# marker sets	Completeness	Contamination	Strain heterogeneity	Genome size (bp)	# ambiguous bases	# scaffolds	# contigs	N50 (scaffolds)	N50 (contigs)	Mean scaffold length (bp)	Mean contig length (bp)	Longest scaffold (bp)	Longest contig (bp)	GC	GC std (scaffolds > 1kbp)	Coding density	Translation table	# predicted genes	0	1	2	3	4	5+
KR11_S3.001	Prokaryote (-1)	5656	56	24	0.00	0.00	0.00	116623	0	128	128	941	941	911	911	4926	4926	45.4	3.52	86.90	11	237	56	0	0	0	0	0
KR11_S3.002	Prokaryote (-1)	5656	56	24	7.48	0.00	0.00	289570	0	403	403	705	705	718	718	3172	3172	62.5	3.33	90.19	11	542	47	9	0	0	0	0
KR11_S3.003	Prokaryote (-1)	5656	56	24	34.23	7.18	0.00	203884	0	186	186	1094	1094	1096	1096	19280	19280	61.8	3.86	88.47	11	278	29	18	6	3	0	0
KR11_S3.004	Prokaryote (-1)	5656	56	24	49.56	19.69	11.76	2013668	0	2244	2244	892	892	897	897	9164	9164	63.9	4.87	89.21	11	3570	26	17	11	2	0	0
KR11_S3.005	Prokaryote (-1)	5656	56	24	28.94	9.26	0.00	507140	0	485	485	1117	1117	1045	1045	7238	7238	64.3	4.24	89.62	11	753	39	13	2	2	0	0
KR11_S3.006	Prokaryote (-1)	5656	56	24	54.17	0.00	0.00	297592	0	93	93	5951	5951	3199	3199	29559	29559	68.2	1.81	92.03	11	344	14	42	0	0	0	0
KR11_S3.007	Prokaryote (-1)	5656	56	24	83.33	0.76	0.00	5555131	0	51	51	347642	347642	108924	108924	852968	852968	63.7	2.48	88.61	11	5292	15	39	2	0	0	0
KR11_S3.008	Prokaryote (-1)	5656	56	24	50.00	2.78	0.00	1785858	0	385	385	8319	8319	4638	4638	27083	27083	69.4	1.59	91.50	11	2034	41	13	2	0	0	0
KR11_S3.009	Prokaryote (-1)	5656	56	24	50.99	8.33	0.00	1560137	0	1454	1454	1160	1160	1072	1072	17883	17883	65.2	3.86	89.43	11	2518	34	20	2	0	0	0
KR11_S3.010	Prokaryote (-1)	5656	56	24	98.96	0.00	0.00	4178944	0	56	56	165936	165936	74624	74624	358528	358528	60.0	3.19	90.16	11	3872	1	55	0	0	0	0
KR11_S3.011	Prokaryote (-1)	5656	56	24	79.17	4.17	100.00	2393626	0	107	107	115099	115099	22370	22370	284374	284374	58.7	3.79	93.44	11	2408	16	39	1	0	0	0
KR11_S3.012	Prokaryote (-1)	5656	56	24	39.17	2.32	0.00	1495887	0	1717	1717	839	839	871	871	19854	19854	51.9	11.81	90.37	11	3118	29	22	5	0	0	0
KR11_S3.013	Prokaryote (-1)	5656	56	24	23.15	0.93	0.00	320676	0	333	333	955	955	962	962	6116	6116	63.0	5.33	91.41	11	509	44	10	2	0	0	0
KR11_S3.014	Prokaryote (-1)	5656	56	24	12.50	0.00	0.00	1271841	0	453	453	5996	5996	2807	2807	50379	50379	69.4	2.29	90.39	11	1640	53	3	0	0	0	0
KR11_S3.015	Prokaryote (-1)	5656	56	24	100.00	0.00	0.00	3342313	0	24	24	308395	308395	139263	139263	540046	540046	61.0	5.16	92.07	11	3190	0	56	0	0	0	0
KR11_S3.016	Prokaryote (-1)	5656	56	24	95.83	63.32	0.00	4828725	0	1433	1433	155294	155294	3369	3369	487930	487930	64.6	4.52	89.94	11	5737	2	34	18	2	0	0
KR11_S3.017	Prokaryote (-1)	5656	56	24	0.93	0.00	0.00	251022	0	209	209	1341	1341	1201	1201	7847	7847	49.4	5.89	55.81	11	311	54	2	0	0	0	0
KR11_S3.018	Prokaryote (-1)	5656	56	24	41.02	29.61	0.00	4380683	0	4135	4135	1083	1083	1059	1059	68669	68669	42.4	6.79	89.83	11	9293	24	18	10	2	1	1
KR11_S3.019	Prokaryote (-1)	5656	56	24	0.00	0.00	0.00	1180788	0	421	421	11825	11825	2804	2804	104264	104264	68.0	3.50	88.92	11	1459	56	0	0	0	0	0
KR11_S3.020	Prokaryote (-1)	5656	56	24	0.90	0.00	0.00	176754	0	190	190	937	937	930	930	3604	3604	51.9	4.52	86.81	11	305	54	2	0	0	0	0
KR11_S3.021	Prokaryote (-1)	5656	56	24	0.46	0.00	0.00	406785	0	112	112	53474	53474	3632	3632	182089	182089	55.6	13.17	90.36	11	483	55	1	0	0	0	0
KR11_S3.022	Prokaryote (-1)	5656	56	24	21.71	4.55	0.00	7005972	0	6765	6765	1053	1053	1035	1035	121185	121185	64.9	5.09	88.21	11	12073	44	10	2	0	0	0
KR11_S3.023	Prokaryote (-1)	5656	56	24	100.00	0.00	0.00	3029062	0	11	11	1563105	1563105	275369	275369	1563105	1563105	65.0	1.11	91.37	11	2776	0	56	0	0	0	0
KR11_S3.024	Prokaryote (-1)	5656	56	24	78.79	1.85	0.00	1032697	0	200	200	10962	10962	5163	5163	45958	45958	29.5	4.71	87.67	11	1407	6	46	4	0	0	0
KR11_S3.025	Prokaryote (-1)	5656	56	24	54.64	27.78	4.65	1979030	0	2181	2181	869	869	907	907	23807	23807	52.7	8.29	85.78	11	3240	24	17	9	2	3	1
KR11_S3.026	Prokaryote (-1)	5656	56	24	100.00	88.38	9.26	4985215	0	3301	3301	2371	2371	1510	1510	37974	37974	55.0	6.81	87.12	11	6834	0	13	23	13	6	1
KR11_S3.027	Prokaryote (-1)	5656	56	24	53.58	7.79	0.00	606695	0	827	827	707	707	733	733	4608	4608	44.0	6.42	86.76	11	1165	19	29	8	0	0	0
KR11_S3.028	Prokaryote (-1)	5656	56	24	0.00	0.00	0.00	124075	0	169	169	717	717	734	734	1437	1437	64.3	5.21	92.93	11	272	56	0	0	0	0	0
KR11_S3.029	Prokaryote (-1)	5656	56	24	98.44	5.01	0.00	2996660	0	524	524	14463	14463	5718	5718	52353	52353	54.1	2.85	88.33	11	3075	3	50	3	0	0	0
KR11_S3.030	Prokaryote (-1)	5656	56	24	60.93	50.09	0.00	1520892	0	1988	1988	733	733	765	765	10944	10944	48.4	6.37	87.10	11	2894	19	20	7	4	1	5
KR11_S3.031	Prokaryote (-1)	5656	56	24	66.06	40.30	12.50	585182	0	746	746	772	772	784	784	3437	3437	41.0	2.60	90.71	11	1106	15	19	14	6	1	1
KR11_S3.032	Prokaryote (-1)	5656	56	24	32.75	7.29	20.00	405035	0	524	524	741	741	772	772	6087	6087	41.2	3.04	85.76	11	786	43	10	2	1	0	0
KR11_S3.033	Prokaryote (-1)	5656	56	24	53.55	70.59	2.99	1197426	0	1224	1224	1023	1023	978	978	15336	15336	43.4	4.47	85.78	11	2085	18	15	8	3	4	8
KR11_S3.034	Prokaryote (-1)	5656	56	24	64.29	19.13	0.00	986162	0	676	676	1751	1751	1458	1458	31162	31162	37.9	5.27	84.50	11	1483	13	37	6	0	0	0
KR11_S3.035	Prokaryote (-1)	5656	56	24	49.10	20.65	0.00	1889775	0	1716	1716	1202	1202	1101	1101	12256	12256	49.3	3.15	88.16	11	2911	21	23	6	5	1	0
KR11_S3.036	Prokaryote (-1)	5656	56	24	78.70	58.40	30.51	2550501	0	2471	2471	1132	1132	1032	1032	11665	11665	45.5	6.21	91.94	11	4607	6	21	17	10	2	0
KR11_S3.037	Prokaryote (-1)	5656	56	24	100.00	37.77	9.09	6364325	0	3127	3127	3340	3340	2035	2035	71103	71103	54.8	4.47	87.14	11	8243	0	37	9	2	3	5
KR11_S3.038	Prokaryote (-1)	5656	56	24	50.57	59.82	5.26	984482	0	1025	1025	916	916	960	960	20114	20114	44.7	3.70	86.54	11	1614	22	11	16	3	2	2
KR11_S3.039	Prokaryote (-1)	5656	56	24	66.67	0.00	0.00	528120	0	72	72	13245	13245	7335	7335	33013	33013	37.0	1.97	93.71	11	613	8	48	0	0	0	0
KR11_S3.040	Prokaryote (-1)	5656	56	24	20.49	3.65	0.00	187399	0	205	205	916	916	914	914	4555	4555	42.0	4.62	89.78	11	331	41	10	5	0	0	0
KR11_S3.041	Prokaryote (-1)	5656	56	24	65.91	47.60	1.96	1154543	0	1285	1285	912	912	898	898	4586	4586	42.0	2.79	89.51	11	2062	16	18	12	7	3	0
KR11_S3.042	Prokaryote (-1)	5656	56	24	46.40	10.19	0.00	1429224	0	1553	1553	950	950	920	920	6183	6183	42.2	4.45	90.49	11	2573	29	23	4	0	0	0
KR11_S3.043	Prokaryote (-1)	5656	56	24	91.67	68.46	6.75	2737725	0	1792	1792	2338	2338	1527	1527	24751	24751	43.1	3.70	88.14	11	3834	2	22	19	6	2	5
KR11_S3.044	Prokaryote (-1)	5656	56	24	91.67	21.30	0.00	5755878	0	3011	3011	3270	3270	1911	1911	54118	54118	43.5	5.58	86.78	11	8467	2	49	4	1	0	0
KR11_S3.045	Prokaryote (-1)	5656	56	24	100.00	0.00	0.00	4221680	0	207	207	45464	45464	20394	20394	113136	113136	48.8	3.24	86.49	11	4005	0	56	0	0	0	0
KR11_S3.046	Prokaryote (-1)	5656	56	24	73.32	5.47	0.00	3514192	0	2613	2613	1605	1605	1344	1344	8275	8275	63.0	3.79	91.04	11	4846	12	39	4	1	0	0
KR11_S3.047	Prokaryote (-1)	5656	56	24	0.00	0.00	0.00	299153	0	44	44	15645	15645	6798	6798	62023	62023	38.4	2.36	94.21	11	292	56	0	0	0	0	0
KR11_S3.048	Prokaryote (-1)	5656	56	24	90.25	6.66	0.00	2325283	0	2163	2163	1172	1172	1075	1075	8715	8715	36.8	4.27	85.24	11	3673	5	46	5	0	0	0
KR11_S3.049	Prokaryote (-1)	5656	56	24	97.92	13.89	0.00	4419264	0	1104	1104	7329	7329	4002	4002	39446	39446	47.0	4.15	88.89	11	4789	4	40	10	2	0	0
KR11_S3.050	Prokaryote (-1)	5656	56	24	83.33	15.26	0.00	856642	0	139	139	45603	45603	6162	6162	151711	151711	37.6	2.77	87.72	11	932	4	41	11	0	0	0
KR11_S3.051	Prokaryote (-1)	5656	56	24	34.96	4.17	100.00	1577341	0	721	721	3490	3490	2187	2187	32051	32051	37.4	4.80	87.68	11	2382	41	14	1	0	0	0
KR11_S3.052	Prokaryote (-1)	5656	56	24	51.52	20.92	2.63	1847651	0	1898	1898	918	918	973	973	51022	51022	44.8	5.48	88.38	11	3202	25	19	8	1	2	1
KR11_S3.053	Prokaryote (-1)	5656	56	24	97.22	1.30	0.00	5112984	0	518	518	22509	22509	9870	9870	86217	86217	47.8	3.57	90.65	11	4882	2	51	3	0	0	0
KR11_S3.054	Prokaryote (-1)	5656	56	24	81.82	0.93	0.00	1182209	0	368	368	4278	4278	3212	3212	14659	14659	40.8	2.53	90.92	11	1448	8	47	0	1	0	0
KR11_S3.055	Prokaryote (-1)	5656	56	24	40.62	0.90	0.00	2537911	0	1424	1424	2677	2677	1782	1782	21125	21125	42.8	3.85	86.22	11	3830	26	28	2	0	0	0
KR11_S3.056	Prokaryote (-1)	5656	56	24	52.13	59.62	10.53	1542117	0	1741	1741	894	894	885	885	7281	7281	45.2	3.60	88.03	11	2717	16	18	10	4	0	8
KR11_S3.057	Prokaryote (-1)	5656	56	24	4.17	0.00	0.00	841502	0	213	213	9265	9265	3950	3950	58720	58720	40.3	3.96	83.96	11	954	55	1	0	0	0	0
KR11_S3.058	Prokaryote (-1)	5656	56	24	100.00	125.17	0.97	7832893	0	1032	1032	21812	21812	7590	7590	103765	103765	49.0	4.69	88.51	11	7594	0	13	25	10	8	0
KR11_S3.059	Prokaryote (-1)	5656	56	24	55.38	24.18	17.86	397438	0	413	413	993	993	962	962	9071	9071	41.7	1.86	91.69	11	688	22	19	10	4	1	0
KR11_S3.060	Prokaryote (-1)	5656	56	24	44.79	9.23	0.00	600738	0	307	307	3320	3320	1956	1956	12921	12921	45.1	3.03	83.85	11	815	26	26	4	0	0	0
KR11_S3.061	Prokaryote (-1)	5656	56	24	55.67	19.32	0.00	831021	0	748	748	1163	1163	1110	1110	9313	9313	36.2	2.05	89.83	11	1481	22	21	9	1	1	2
KR11_S3.062	Prokaryote (-1)	5656	56	24	100.00	0.00	0.00	2747068	0	395	395	13753	13753	6954	6954	48781	48781	40.6	3.31	85.59	11	2787	0	56	0	0	0	0
KR11_S3.063	Prokaryote (-1)	5656	56	24	0.90	0.00	0.00	696711	0	1014	1014	651	651	687	687	2823	2823	64.0	7.35	88.17	11	1405	54	2	0	0	0	0
KR11_S3.064	Prokaryote (-1)	5656	56	24	58.33	14.48	23.81	973631	0	207	207	13456	13456	4703	4703	68001	68001	39.0	3.91	83.46	11	993	11	28	15	2	0	0
KR11_S3.065	Prokaryote (-1)	5656	56	24	54.42	20.64	0.00	4030170	0	5225	5225	735	735	771	771	22793	22793	44.8	5.55	91.87	11	7807	22	23	5	4	1	1
KR11_S3.066	Prokaryote (-1)	5656	56	24	79.17	40.65	13.33	989316	0	422	422	3551	3551	2344	2344	22307	22307	39.1	3.57	90.47	11	1380	5	27	21	3	0	0
KR11_S3.067	Prokaryote (-1)	5656	56	24	70.83	106.17	1.98	1652993	0	1340	1340	1386	1386	1233	1233	15118	15118	38.0	3.57	87.26	11	2605	7	11	9	8	13	8
KR11_S3.068	Prokaryote (-1)	5656	56	24	80.09	20.17	87.50	2080996	0	892	892	3377	3377	2332	2332	65823	65823	39.5	5.71	89.41	11	2757	7	41	8	0	0	0
KR11_S3.069	Prokaryote (-1)	5656	56	24	39.86	31.06	0.00	1498209	0	1603	1603	958	958	934	934	6861	6861	33.4	2.11	86.38	11	3003	29	14	6	4	2	1
KR11_S3.070	Prokaryote (-1)	5656	56	24	78.87	39.94	0.00	6446104	0	4017	4017	3744	3744	1604	1604	61611	61611	50.8	3.56	89.68	11	8397	14	25	13	3	1	0
KR11_S3.071	Prokaryote (-1)	5656	56	24	12.50	0.00	0.00	443415	0	55	55	16942	16942	8062	8062	40945	40945	37.4	2.03	93.88	11	459	53	3	0	0	0	0
KR11_S3.072	Prokaryote (-1)	5656	56	24	95.31	39.13	12.12	2041768	0	1592	1592	1618	1618	1282	1282	11998	11998	43.7	3.34	89.43	11	3202	2	42	8	1	2	1
KR11_S3.073	Prokaryote (-1)	5656	56	24	87.50	4.17	0.00	1404295	0	91	91	29322	29322	15431	15431	82682	82682	39.2	5.38	85.59	11	1385	3	52	1	0	0	0
KR11_S3.074	Prokaryote (-1)	5656	56	24	85.42	98.47	2.78	1960313	0	1499	1499	1504	1504	1307	1307	26258	26258	36.6	3.36	87.93	11	3100	4	14	19	7	6	6
KR11_S3.075	Prokaryote (-1)	5656	56	24	55.29	39.22	8.89	1295089	0	1396	1396	906	906	927	927	12864	12864	42.0	3.48	90.88	11	2289	18	16	12	9	1	0
KR11_S3.076	Prokaryote (-1)	5656	56	24	34.56	0.00	0.00	964969	0	1178	1178	821	821	819	819	3277	3277	56.5	3.25	88.11	11	1872	37	19	0	0	0	0
KR11_S3.077	Prokaryote (-1)	5656	56	24	76.18	70.26	8.00	1693595	0	1858	1858	892	892	911	911	7389	7389	43.3	2.61	92.20	11	3058	10	22	16	6	1	1
KR11_S3.078	Prokaryote (-1)	5656	56	24	55.38	0.00	0.00	1076540	0	331	331	5548	5548	3252	3252	33210	33210	36.6	3.21	84.59	11	1341	29	27	0	0	0	0
KR11_S3.079	Prokaryote (-1)	5656	56	24	0.00	0.00	0.00	155507	0	58	58	6697	6697	2681	2681	65016	65016	61.8	6.46	87.49	11	180	56	0	0	0	0	0
KR11_S3.080	Prokaryote (-1)	5656	56	24	39.47	30.24	0.00	4251823	0	4897	4897	830	830	868	868	15081	15081	35.9	2.55	86.49	11	8480	35	10	6	4	0	1
KR11_S3.081	Prokaryote (-1)	5656	56	24	65.94	74.01	1.82	5138868	0	6987	6987	705	705	735	735	5239	5239	53.7	6.44	90.35	11	10160	11	21	16	6	1	1
KR11_S3.082	Prokaryote (-1)	5656	56	24	84.52	94.27	1.74	2430661	0	3107	3107	746	746	782	782	6330	6330	42.3	3.17	89.24	11	4792	6	17	14	10	6	3
KR11_S3.083	Prokaryote (-1)	5656	56	24	53.89	32.74	0.00	998769	0	1448	1448	660	660	689	689	2371	2371	42.3	4.30	87.69	11	2079	25	19	5	5	2	0
KR11_S3.084	Prokaryote (-1)	5656	56	24	76.18	36.06	0.00	4013165	0	4403	4403	926	926	911	911	37572	37572	48.2	3.65	90.85	11	6880	10	29	10	5	2	0
KR11_S3.085	Prokaryote (-1)	5656	56	24	86.08	37.46	34.62	1587096	0	818	818	2531	2531	1940	1940	15924	15924	39.5	2.50	91.74	11	2177	5	32	17	1	1	0
KR11_S3.086	Prokaryote (-1)	5656	56	24	55.46	13.02	0.00	1101450	0	880	880	1379	1379	1251	1251	12255	12255	36.8	3.38	87.98	11	1873	24	28	4	0	0	0
KR11_S3.087	Prokaryote (-1)	5656	56	24	82.95	43.88	8.11	2143128	0	1870	1870	1230	1230	1146	1146	10218	10218	50.6	11.82	91.18	11	3590	5	20	28	3	0	0
KR11_S3.088	Prokaryote (-1)	5656	56	24	44.29	18.13	0.00	934320	0	1461	1461	607	607	639	639	5339	5339	45.9	6.71	88.32	11	1952	25	18	10	3	0	0
KR11_S3.089	Prokaryote (-1)	5656	56	24	52.19	17.13	77.78	858543	0	134	134	10088	10088	6407	6407	27171	27171	36.4	1.98	80.77	11	887	25	22	9	0	0	0
KR11_S3.090	Prokaryote (-1)	5656	56	24	4.17	0.00	0.00	243284	0	38	38	13329	13329	6402	6402	27775	27775	38.0	2.13	93.55	11	257	55	1	0	0	0	0
KR11_S3.091	Prokaryote (-1)	5656	56	24	58.82	62.07	1.69	678422	0	606	606	1242	1242	1119	1119	7069	7069	36.2	2.97	91.90	11	1213	18	21	8	7	0	2
KR11_S3.092	Prokaryote (-1)	5656	56	24	71.21	117.34	0.00	2343473	0	3091	3091	723	723	758	758	8079	8079	41.8	3.86	88.29	11	4638	12	12	15	7	6	4
KR11_S3.093	Prokaryote (-1)	5656	56	24	75.00	22.34	7.41	1137361	0	275	275	7574	7574	4135	4135	36628	36628	40.1	3.28	84.71	11	1239	8	25	21	2	0	0
KR11_S3.094	Prokaryote (-1)	5656	56	24	32.86	12.17	0.00	408060	0	518	518	760	760	787	787	3629	3629	40.0	1.69	88.72	11	833	34	13	7	2	0	0
KR11_S3.095	Prokaryote (-1)	5656	56	24	88.89	34.07	0.00	5005941	0	2103	2103	4543	4543	2380	2380	58287	58287	39.0	2.20	84.25	11	6141	4	26	17	9	0	0
KR11_S3.096	Prokaryote (-1)	5656	56	24	74.07	32.98	0.00	1765646	0	1969	1969	888	888	896	896	5859	5859	39.6	3.11	88.96	11	3284	9	27	14	4	2	0
KR11_S3.097	Prokaryote (-1)	5656	56	24	20.83	0.00	0.00	742026	0	97	97	11758	11758	7649	7649	30102	30102	37.7	2.70	94.57	11	784	51	5	0	0	0	0
KR11_S3.098	Prokaryote (-1)	5656	56	24	68.98	4.17	0.00	635308	0	90	90	19464	19464	7058	7058	56271	56271	35.1	3.01	87.16	11	701	9	46	1	0	0	0
KR11_S3.099	Prokaryote (-1)	5656	56	24	37.74	0.46	0.00	1173983	0	1517	1517	765	765	773	773	3774	3774	50.9	4.73	91.46	11	2091	37	18	1	0	0	0
KR11_S3.100	Prokaryote (-1)	5656	56	24	79.17	11.52	0.00	1110103	0	514	514	3887	3887	2159	2159	16046	16046	46.2	3.85	92.30	11	1497	5	41	10	0	0	0
KR11_S3.101	Prokaryote (-1)	5656	56	24	91.67	15.62	0.00	2083148	0	664	664	12249	12249	3137	3137	41383	41383	48.8	3.77	93.86	11	2297	2	48	6	0	0	0
KR11_S3.102	Prokaryote (-1)	5656	56	24	46.88	8.33	100.00	3711636	0	390	390	23483	23483	9517	9517	80205	80205	40.4	2.84	86.37	11	3535	43	11	2	0	0	0
KR11_S3.103	Prokaryote (-1)	5656	56	24	68.06	97.57	6.30	1519492	0	1612	1612	933	933	942	942	16552	16552	35.9	3.00	87.23	11	2840	11	12	14	11	4	4
KR11_S3.104	Prokaryote (-1)	5656	56	24	55.15	14.96	0.00	926707	0	769	769	1413	1413	1205	1205	6782	6782	37.5	3.53	86.27	11	1498	24	23	8	1	0	0
KR11_S3.105	Prokaryote (-1)	5656	56	24	62.44	0.00	0.00	700349	0	96	96	16956	16956	7295	7295	44980	44980	32.4	2.77	81.80	11	776	23	33	0	0	0	0
KR11_S3.106	Prokaryote (-1)	5656	56	24	36.07	7.01	0.00	350510	0	272	272	1574	1574	1288	1288	9514	9514	40.6	1.43	87.79	11	561	30	20	5	1	0	0
KR11_S3.107	Prokaryote (-1)	5656	56	24	49.80	12.50	33.33	1103978	0	462	462	3254	3254	2389	2389	22599	22599	36.7	3.72	85.50	11	1454	31	22	3	0	0	0
KR11_S3.108	Prokaryote (-1)	5656	56	24	77.19	43.64	33.33	3242465	0	3416	3416	922	922	949	949	35579	35579	46.5	4.80	89.81	11	5662	12	25	15	4	0	0
KR11_S3.109	Prokaryote (-1)	5656	56	24	54.86	5.39	50.00	668830	0	293	293	4009	4009	2282	2282	17466	17466	35.5	8.30	91.41	11	998	15	37	4	0	0	0
KR11_S3.110	Prokaryote (-1)	5656	56	24	74.42	28.98	12.50	1751991	0	1644	1644	1194	1194	1065	1065	7695	7695	44.7	4.04	87.98	11	2819	18	26	10	2	0	0
KR11_S3.111	Prokaryote (-1)	5656	56	24	38.69	6.77	0.00	1379379	0	1628	1628	856	856	847	847	4370	4370	45.6	3.03	88.50	11	2560	35	16	5	0	0	0
KR11_S3.112	Prokaryote (-1)	5656	56	24	51.74	46.26	0.00	1230202	0	1740	1740	676	676	707	707	2619	2619	41.4	2.49	88.33	11	2524	16	16	13	7	1	3
KR11_S3.113	Prokaryote (-1)	5656	56	24	85.98	55.73	59.09	5388696	0	3019	3019	2317	2317	1784	1784	34579	34579	34.7	2.60	89.21	11	6786	18	20	16	2	0	0
KR11_S3.114	Prokaryote (-1)	5656	56	24	48.40	21.71	4.00	1291544	0	1519	1519	848	848	850	850	4359	4359	40.3	1.96	88.04	11	2490	21	21	10	3	1	0
KR11_S3.115	Prokaryote (-1)	5656	56	24	50.69	12.50	80.00	1261405	0	225	225	8492	8492	5606	5606	27889	27889	37.1	2.10	81.49	11	1325	19	32	5	0	0	0
KR11_S3.116	Prokaryote (-1)	5656	56	24	37.26	14.85	0.00	1197689	0	1407	1407	854	854	851	851	3848	3848	45.8	2.74	90.18	11	2155	29	18	8	1	0	0
KR11_S3.117	Prokaryote (-1)	5656	56	24	62.29	37.94	0.00	975111	0	1438	1438	646	646	678	678	3881	3881	43.9	3.61	88.62	11	1997	19	22	9	4	1	1
KR11_S3.118	Prokaryote (-1)	5656	56	24	36.96	13.03	0.00	7941363	0	5227	5227	3229	3229	1519	1519	39946	39946	42.8	5.03	87.46	11	10595	33	15	7	1	0	0
KR11_S3.119	Prokaryote (-1)	5656	56	24	69.44	47.40	4.88	3313525	0	2606	2606	1435	1435	1271	1271	18511	18511	38.2	2.73	91.28	11	5281	15	16	17	8	0	0
KR11_S3.120	Prokaryote (-1)	5656	56	24	79.28	49.33	0.00	1879250	0	1725	1725	1182	1182	1089	1089	7482	7482	46.3	2.72	93.72	11	2954	12	26	10	6	2	0
KR11_S3.121	Prokaryote (-1)	5656	56	24	71.23	110.76	1.18	4524275	0	7485	7485	577	577	604	604	2802	2802	45.5	12.42	90.99	11	10104	11	15	14	11	3	2
KR11_S3.122	Prokaryote (-1)	5656	56	24	87.35	70.13	10.53	2562819	0	2007	2007	1575	1575	1276	1276	11036	11036	45.8	2.89	90.97	11	3894	6	18	10	17	4	1
KR11_S3.123	Prokaryote (-1)	5656	56	24	43.69	11.46	0.00	835682	0	440	440	2489	2489	1899	1899	30300	30300	33.8	3.52	84.37	11	1218	17	32	6	1	0	0
KR11_S3.124	Prokaryote (-1)	5656	56	24	15.82	6.82	0.00	632526	0	818	818	752	752	773	773	2659	2659	39.4	1.88	86.06	11	1356	41	10	3	1	1	0
KR11_S3.125	Prokaryote (-1)	5656	56	24	51.93	14.08	14.29	934098	0	593	593	1936	1936	1575	1575	9529	9529	42.8	1.93	88.95	11	1476	24	24	5	3	0	0
KR11_S3.126	Prokaryote (-1)	5656	56	24	40.84	2.60	0.00	824575	0	1202	1202	649	649	686	686	2248	2248	42.7	4.18	89.30	11	1707	30	22	3	1	0	0
