genome_id	name
Old_saline_planktonic.001	Old_saline_planktonic.001
Old_saline_planktonic.002	Old_saline_planktonic.002
Old_saline_planktonic.003	Old_saline_planktonic.003
Old_saline_planktonic.004	Old_saline_planktonic.004
Old_saline_planktonic.005	Old_saline_planktonic.005
Old_saline_planktonic.006	Old_saline_planktonic.006
Old_saline_planktonic.007	Old_saline_planktonic.007
Old_saline_planktonic.008	Old_saline_planktonic.008
Old_saline_planktonic.009	Old_saline_planktonic.009
Old_saline_planktonic.010	Old_saline_planktonic.010
Old_saline_planktonic.011	Old_saline_planktonic.011
Old_saline_planktonic.012	Old_saline_planktonic.012
Old_saline_planktonic.013	Old_saline_planktonic.013
Old_saline_planktonic.014	Old_saline_planktonic.014
Old_saline_planktonic.015	Old_saline_planktonic.015
Old_saline_planktonic.016	Old_saline_planktonic.016
Old_saline_planktonic.017	Old_saline_planktonic.017
Old_saline_planktonic.018	Old_saline_planktonic.018
Old_saline_planktonic.019	Old_saline_planktonic.019
Old_saline_planktonic.020	Old_saline_planktonic.020
Old_saline_planktonic.021	Old_saline_planktonic.021
Old_saline_planktonic.022	Old_saline_planktonic.022
Old_saline_planktonic.023	Old_saline_planktonic.023
Old_saline_planktonic.024	Old_saline_planktonic.024
Old_saline_planktonic.025	Old_saline_planktonic.025
Old_saline_planktonic.026	Old_saline_planktonic.026
Old_saline_planktonic.027	Old_saline_planktonic.027
Old_saline_planktonic.028	Old_saline_planktonic.028
Old_saline_planktonic.029	Old_saline_planktonic.029
Old_saline_planktonic.030	Old_saline_planktonic.030
Old_saline_planktonic.031	Old_saline_planktonic.031
Old_saline_planktonic.032	Old_saline_planktonic.032
Old_saline_planktonic.033	Old_saline_planktonic.033
Old_saline_planktonic.034	Old_saline_planktonic.034
Old_saline_planktonic.035	Old_saline_planktonic.035
Old_saline_planktonic.036	Old_saline_planktonic.036
Old_saline_planktonic.037	Old_saline_planktonic.037
Old_saline_planktonic.038	Old_saline_planktonic.038
Old_saline_planktonic.039	Old_saline_planktonic.039
Old_saline_planktonic.040	Old_saline_planktonic.040
Old_saline_planktonic.041	Old_saline_planktonic.041
Old_saline_planktonic.042	Old_saline_planktonic.042
Old_saline_planktonic.043	Old_saline_planktonic.043
Old_saline_planktonic.044	Old_saline_planktonic.044
Old_saline_planktonic.045	Old_saline_planktonic.045
Old_saline_planktonic.046	Old_saline_planktonic.046
Old_saline_planktonic.047	Old_saline_planktonic.047
Old_saline_planktonic.048	Old_saline_planktonic.048
Old_saline_planktonic.049	Old_saline_planktonic.049
Old_saline_planktonic.050	Old_saline_planktonic.050
Old_saline_planktonic.051	Old_saline_planktonic.051
Old_saline_planktonic.052	Old_saline_planktonic.052
Old_saline_planktonic.053	Old_saline_planktonic.053
Old_saline_planktonic.054	Old_saline_planktonic.054
Old_saline_planktonic.055	Old_saline_planktonic.055
Old_saline_planktonic.056	Old_saline_planktonic.056
Old_saline_planktonic.057	Old_saline_planktonic.057
Old_saline_planktonic.058	Old_saline_planktonic.058
Old_saline_planktonic.059	Old_saline_planktonic.059
Old_saline_planktonic.060	Old_saline_planktonic.060
Old_saline_planktonic.061	Old_saline_planktonic.061
Old_saline_planktonic.062	Old_saline_planktonic.062
Old_saline_planktonic.063	Old_saline_planktonic.063
Old_saline_planktonic.064	Old_saline_planktonic.064
Old_saline_planktonic.065	Old_saline_planktonic.065
Old_saline_planktonic.066	Old_saline_planktonic.066
Old_saline_planktonic.067	Old_saline_planktonic.067
Old_saline_planktonic.068	Old_saline_planktonic.068
Old_saline_planktonic.069	Old_saline_planktonic.069
Old_saline_planktonic.070	Old_saline_planktonic.070
Old_saline_planktonic.071	Old_saline_planktonic.071
Old_saline_planktonic.072	Old_saline_planktonic.072
Old_saline_planktonic.073	Old_saline_planktonic.073
Old_saline_planktonic.074	Old_saline_planktonic.074
Old_saline_planktonic.075	Old_saline_planktonic.075
Old_saline_planktonic.076	Old_saline_planktonic.076
Old_saline_planktonic.077	Old_saline_planktonic.077
Old_saline_planktonic.078	Old_saline_planktonic.078
Old_saline_planktonic.079	Old_saline_planktonic.079
Old_saline_planktonic.080	Old_saline_planktonic.080
Old_saline_planktonic.081	Old_saline_planktonic.081
Old_saline_planktonic.082	Old_saline_planktonic.082
Old_saline_planktonic.083	Old_saline_planktonic.083
Old_saline_planktonic.084	Old_saline_planktonic.084
Old_saline_planktonic.085	Old_saline_planktonic.085
Old_saline_planktonic.086	Old_saline_planktonic.086
Old_saline_planktonic.087	Old_saline_planktonic.087
Old_saline_planktonic.088	Old_saline_planktonic.088
Old_saline_planktonic.089	Old_saline_planktonic.089
Old_saline_planktonic.090	Old_saline_planktonic.090
Old_saline_planktonic.091	Old_saline_planktonic.091
Old_saline_planktonic.092	Old_saline_planktonic.092
Old_saline_planktonic.093	Old_saline_planktonic.093
Old_saline_planktonic.094	Old_saline_planktonic.094
Old_saline_planktonic.095	Old_saline_planktonic.095
Old_saline_planktonic.096	Old_saline_planktonic.096
Old_saline_planktonic.097	Old_saline_planktonic.097
Old_saline_planktonic.098	Old_saline_planktonic.098
Old_saline_planktonic.099	Old_saline_planktonic.099
Old_saline_planktonic.100	Old_saline_planktonic.100
Old_saline_planktonic.101	Old_saline_planktonic.101
Old_saline_planktonic.102	Old_saline_planktonic.102
Old_saline_planktonic.103	Old_saline_planktonic.103
Old_saline_planktonic.104	Old_saline_planktonic.104
Old_saline_planktonic.105	Old_saline_planktonic.105
Old_saline_planktonic.106	Old_saline_planktonic.106
Old_saline_planktonic.107	Old_saline_planktonic.107
Old_saline_planktonic.108	Old_saline_planktonic.108
Old_saline_planktonic.109	Old_saline_planktonic.109
Old_saline_planktonic.110	Old_saline_planktonic.110
Old_saline_planktonic.111	Old_saline_planktonic.111
Old_saline_planktonic.112	Old_saline_planktonic.112
Old_saline_planktonic.113	Old_saline_planktonic.113
Old_saline_planktonic.114	Old_saline_planktonic.114
Old_saline_planktonic.115	Old_saline_planktonic.115
Old_saline_planktonic.116	Old_saline_planktonic.116
Old_saline_planktonic.117	Old_saline_planktonic.117
Old_saline_planktonic.118	Old_saline_planktonic.118
Old_saline_planktonic.119	Old_saline_planktonic.119
Old_saline_planktonic.120	Old_saline_planktonic.120
Old_saline_planktonic.121	Old_saline_planktonic.121
Old_saline_planktonic.122	Old_saline_planktonic.122
Old_saline_planktonic.123	Old_saline_planktonic.123
Old_saline_planktonic.124	Old_saline_planktonic.124
Old_saline_planktonic.125	Old_saline_planktonic.125
Old_saline_planktonic.126	Old_saline_planktonic.126
Old_saline_planktonic.127	Old_saline_planktonic.127
Old_saline_planktonic.128	Old_saline_planktonic.128
Old_saline_planktonic.129	Old_saline_planktonic.129
Old_saline_planktonic.130	Old_saline_planktonic.130
Old_saline_planktonic.131	Old_saline_planktonic.131
Old_saline_planktonic.132	Old_saline_planktonic.132
Old_saline_planktonic.133	Old_saline_planktonic.133
Old_saline_planktonic.134	Old_saline_planktonic.134
Old_saline_planktonic.135	Old_saline_planktonic.135
