Bin Id	# unique markers (of 43)	# multi-copy	Taxonomy
KR13_N1.001	0	0	NA
KR13_N1.002	15	0	k__Bacteria;p__Proteobacteria;c__Betaproteobacteria;o__Burkholderiales;f__Comamonadaceae
KR13_N1.003	0	0	NA
KR13_N1.004	26	3	k__Bacteria;p__Proteobacteria;c__Deltaproteobacteria
KR13_N1.005	8	4	k__Archaea (root)
KR13_N1.006	13	29	k__Bacteria
KR13_N1.007	6	8	k__Bacteria;p__Proteobacteria;c__Deltaproteobacteria;o__Desulfobacterales;f__Desulfobacteraceae
KR13_N1.008	6	0	k__Bacteria
KR13_N1.009	27	3	k__Bacteria;p__Proteobacteria;c__Betaproteobacteria;o__Burkholderiales
KR13_N1.010	12	5	k__Bacteria
KR13_N1.011	16	8	k__Bacteria (root)
KR13_N1.012	13	0	k__Bacteria;p__Proteobacteria;c__Alphaproteobacteria;o__Caulobacterales;f__Caulobacteraceae;g__Brevundimonas
KR13_N1.013	17	13	k__Bacteria;p__Spirochaetes;c__Spirochaetia
KR13_N1.014	15	0	k__Bacteria;p__Proteobacteria;c__Betaproteobacteria;o__Burkholderiales;f__Comamonadaceae;g__Acidovorax
KR13_N1.015	14	19	k__Bacteria;p__Spirochaetes;c__Spirochaetia
KR13_N1.016	23	9	k__Bacteria;p__Spirochaetes;c__Spirochaetia
KR13_N1.017	18	16	k__Bacteria;p__Actinobacteria;c__Actinobacteria;o__Actinomycetales
KR13_N1.018	15	0	k__Bacteria (root)
KR13_N1.019	36	6	k__Bacteria;p__Proteobacteria;c__Deltaproteobacteria;o__Desulfobacterales;f__Desulfobacteraceae
KR13_N1.020	26	7	k__Bacteria;p__Spirochaetes;c__Spirochaetia
KR13_N1.021	15	28	k__Bacteria;p__Proteobacteria;c__Deltaproteobacteria;o__Desulfobacterales;f__Desulfobacteraceae
KR13_N1.022	21	15	k__Bacteria
KR13_N1.023	41	2	k__Bacteria;p__Proteobacteria;c__Deltaproteobacteria;o__Desulfobacterales;f__Desulfobulbaceae
KR13_N1.024	40	1	k__Bacteria;p__Proteobacteria;c__Deltaproteobacteria;o__Desulfobacterales;f__Desulfobulbaceae
KR13_N1.025	23	7	k__Bacteria
KR13_N1.026	8	1	k__Bacteria;p__Spirochaetes;c__Spirochaetia
KR13_N1.027	3	0	k__Bacteria
KR13_N1.028	19	9	k__Bacteria (root)
KR13_N1.029	23	1	k__Bacteria
KR13_N1.030	21	20	k__Bacteria
KR13_N1.031	12	1	k__Bacteria;p__Proteobacteria;c__Alphaproteobacteria;o__Caulobacterales;f__Caulobacteraceae;g__Brevundimonas
KR13_N1.032	29	0	k__Bacteria;p__Proteobacteria;c__Deltaproteobacteria;o__Desulfobacterales;f__Desulfobacteraceae
KR13_N1.033	10	0	k__Bacteria;p__Actinobacteria;c__Actinobacteria;o__Actinomycetales;f__Cellulomonadaceae;g__Cellulomonas;s__Cellulomonas_flavigena
KR13_N1.034	21	19	k__Bacteria
KR13_N1.035	16	14	k__Bacteria
KR13_N1.036	28	6	k__Bacteria;p__Chloroflexi;c__Dehalococcoidetes
KR13_N1.037	15	19	k__Bacteria (root)
KR13_N1.038	25	12	k__Bacteria;p__Spirochaetes;c__Spirochaetia
KR13_N1.039	35	3	k__Bacteria;p__Chloroflexi;c__Dehalococcoidetes
KR13_N1.040	41	0	k__Bacteria
KR13_N1.041	8	27	k__Bacteria;p__Proteobacteria
KR13_N1.042	2	0	k__Bacteria;p__Proteobacteria;c__Deltaproteobacteria;o__Desulfobacterales;f__Desulfobacteraceae
KR13_N1.043	33	2	k__Bacteria;p__Proteobacteria;c__Deltaproteobacteria;o__Desulfovibrionales;f__Desulfovibrionaceae;g__Desulfovibrio
KR13_N1.044	30	9	k__Bacteria;p__Nitrospirae;c__Nitrospira;o__Nitrospirales;f__Nitrospiraceae
KR13_N1.045	10	9	k__Bacteria;p__Spirochaetes;c__Spirochaetia
KR13_N1.046	21	14	k__Bacteria;p__Proteobacteria;c__Deltaproteobacteria
KR13_N1.047	14	20	k__Bacteria
KR13_N1.048	13	11	k__Bacteria;p__Proteobacteria;c__Deltaproteobacteria;o__Desulfobacterales;f__Desulfobacteraceae
KR13_N1.049	37	4	k__Bacteria;p__Proteobacteria;c__Deltaproteobacteria;o__Desulfobacterales;f__Desulfobulbaceae
KR13_N1.050	14	4	k__Bacteria;p__Actinobacteria;c__Actinobacteria;o__Actinomycetales;f__Cellulomonadaceae;g__Cellulomonas;s__Cellulomonas_flavigena
KR13_N1.051	13	8	k__Bacteria
KR13_N1.052	22	12	k__Bacteria (root)
KR13_N1.053	37	3	k__Bacteria (root)
KR13_N1.054	16	8	k__Bacteria (root)
KR13_N1.055	30	0	k__Bacteria;p__Planctomycetes;c__Planctomycetia;o__Planctomycetales;f__Planctomycetaceae
KR13_N1.056	37	3	k__Bacteria;p__Chloroflexi
KR13_N1.057	15	5	k__Bacteria (root)
KR13_N1.058	27	14	k__Bacteria
KR13_N1.059	7	36	k__Bacteria
KR13_N1.060	4	0	k__Bacteria
KR13_N1.061	43	0	k__Bacteria;p__Actinobacteria;c__Actinobacteria
KR13_N1.062	31	10	k__Bacteria;p__Chloroflexi;c__Dehalococcoidetes
KR13_N1.063	36	3	k__Bacteria;p__Proteobacteria;c__Deltaproteobacteria;o__Desulfobacterales;f__Desulfobacteraceae
KR13_N1.064	42	0	k__Bacteria;p__Actinobacteria;c__Actinobacteria;o__Actinomycetales;f__Propionibacteriaceae
KR13_N1.065	9	19	k__Bacteria
KR13_N1.066	17	9	k__Bacteria
KR13_N1.067	37	5	k__Bacteria
KR13_N1.068	13	2	k__Bacteria
KR13_N1.069	10	29	k__Archaea (root)
KR13_N1.070	29	7	k__Bacteria;p__Chloroflexi
KR13_N1.071	16	8	k__Bacteria
KR13_N1.072	3	0	k__Bacteria;p__Proteobacteria;c__Alphaproteobacteria;o__Caulobacterales;f__Caulobacteraceae;g__Brevundimonas
KR13_N1.073	15	9	k__Bacteria;p__Chloroflexi;c__Dehalococcoidetes
KR13_N1.074	1	0	k__Bacteria;p__Proteobacteria;c__Alphaproteobacteria;o__Caulobacterales;f__Caulobacteraceae;g__Brevundimonas
KR13_N1.075	12	5	k__Bacteria;p__Spirochaetes;c__Spirochaetia
KR13_N1.076	5	1	k__Bacteria;p__Actinobacteria;c__Actinobacteria;o__Actinomycetales;f__Cellulomonadaceae;g__Cellulomonas;s__Cellulomonas_flavigena
KR13_N1.077	37	6	k__Archaea;p__Euryarchaeota;c__Methanomicrobia;o__Methanosarcinales
KR13_N1.078	8	5	k__Bacteria (root)
KR13_N1.079	20	5	k__Bacteria
KR13_N1.080	26	5	k__Bacteria;p__Proteobacteria;c__Deltaproteobacteria;o__Desulfobacterales;f__Desulfobacteraceae
KR13_N1.081	25	0	k__Bacteria;p__Proteobacteria;c__Alphaproteobacteria;o__Rickettsiales
KR13_N1.082	12	2	k__Bacteria;p__Spirochaetes;c__Spirochaetia
KR13_N1.083	7	0	k__Bacteria (root)
KR13_N1.084	30	13	k__Archaea;p__Euryarchaeota
KR13_N1.085	3	0	k__Bacteria
KR13_N1.086	17	4	k__Bacteria;p__Chloroflexi;c__Dehalococcoidetes
KR13_N1.087	7	3	k__Bacteria;p__Proteobacteria
KR13_N1.088	11	1	k__Bacteria (root)
KR13_N1.089	11	3	k__Bacteria;p__Spirochaetes;c__Spirochaetia
KR13_N1.090	10	31	k__Bacteria (root)
KR13_N1.091	14	10	k__Bacteria (root)
KR13_N1.092	14	8	k__Bacteria (root)
KR13_N1.093	0	0	NA
KR13_N1.094	21	4	k__Archaea (root)
KR13_N1.095	10	6	k__Bacteria (root)
KR13_N1.096	9	1	k__Bacteria;p__Actinobacteria;c__Actinobacteria
KR13_N1.097	15	8	k__Bacteria (root)
