Bin Id	Marker lineage	# genomes	# markers	# marker sets	Completeness	Contamination	Strain heterogeneity	Genome size (bp)	# ambiguous bases	# scaffolds	# contigs	N50 (scaffolds)	N50 (contigs)	Mean scaffold length (bp)	Mean contig length (bp)	Longest scaffold (bp)	Longest contig (bp)	GC	GC std (scaffolds > 1kbp)	Coding density	Translation table	# predicted genes	0	1	2	3	4	5+
KR13_S3.001	Prokaryote (-1)	5656	56	24	74.16	61.84	69.05	1636344	0	927	927	2350	2350	1765	1765	16572	16572	42.5	3.36	93.58	11	2565	8	18	24	6	0	0
KR13_S3.002	Prokaryote (-1)	5656	56	24	91.61	4.17	0.00	3540928	0	890	890	5853	5853	3978	3978	24661	24661	65.0	2.46	90.31	11	3971	8	47	1	0	0	0
KR13_S3.003	Prokaryote (-1)	5656	56	24	16.67	5.21	0.00	739165	0	413	413	2568	2568	1789	1789	23595	23595	42.5	6.16	80.33	11	1012	48	6	2	0	0	0
KR13_S3.004	Prokaryote (-1)	5656	56	24	89.76	27.09	0.00	3017351	0	2531	2531	1390	1390	1192	1192	10694	10694	41.7	4.57	89.02	11	4675	6	38	10	2	0	0
KR13_S3.005	Prokaryote (-1)	5656	56	24	97.92	76.52	74.19	2988965	0	1482	1482	2716	2716	2016	2016	14983	14983	35.3	3.74	84.73	11	3907	1	17	29	7	2	0
KR13_S3.006	Prokaryote (-1)	5656	56	24	90.25	0.00	0.00	2787194	0	668	668	7063	7063	4172	4172	43530	43530	58.4	2.87	89.36	11	2999	5	51	0	0	0	0
KR13_S3.007	Prokaryote (-1)	5656	56	24	100.00	50.27	71.11	4312248	0	1788	1788	3483	3483	2411	2411	19628	19628	56.8	4.23	88.06	11	5788	0	28	21	6	1	0
KR13_S3.008	Prokaryote (-1)	5656	56	24	0.00	0.00	0.00	117240	0	16	16	14628	14628	7327	7327	53325	53325	64.7	1.94	89.88	11	131	56	0	0	0	0	0
KR13_S3.009	Prokaryote (-1)	5656	56	24	82.58	13.80	16.67	2689686	0	2264	2264	1392	1392	1188	1188	7976	7976	44.9	4.60	87.89	11	4082	8	42	6	0	0	0
KR13_S3.010	Prokaryote (-1)	5656	56	24	100.00	4.17	100.00	3615915	0	867	867	9334	9334	4170	4170	66219	66219	53.0	3.71	90.91	11	3761	0	55	1	0	0	0
KR13_S3.011	Prokaryote (-1)	5656	56	24	9.32	0.46	0.00	589567	0	379	379	1882	1882	1555	1555	27707	27707	43.2	7.45	70.89	11	756	48	7	1	0	0	0
KR13_S3.012	Prokaryote (-1)	5656	56	24	66.90	50.17	25.81	4095533	0	3032	3032	1706	1706	1350	1350	18555	18555	55.5	3.94	87.91	11	6387	20	15	16	5	0	0
KR13_S3.013	Prokaryote (-1)	5656	56	24	75.00	17.19	30.77	832958	0	406	406	2737	2737	2051	2051	15563	15563	39.4	3.72	91.11	11	1154	6	41	7	2	0	0
KR13_S3.014	Prokaryote (-1)	5656	56	24	4.17	0.00	0.00	510918	0	208	208	3751	3751	2456	2456	15134	15134	59.2	3.86	83.76	11	621	55	1	0	0	0	0
KR13_S3.015	Prokaryote (-1)	5656	56	24	82.49	6.71	66.67	1390637	0	812	812	2337	2337	1712	1712	10128	10128	57.4	5.11	89.13	11	1842	6	47	3	0	0	0
KR13_S3.016	Prokaryote (-1)	5656	56	24	9.84	0.46	0.00	1647176	0	1272	1272	1640	1640	1294	1294	15066	15066	54.5	5.34	86.30	11	2438	52	3	1	0	0	0
KR13_S3.017	Prokaryote (-1)	5656	56	24	95.83	38.26	21.43	4450006	0	892	892	19644	19644	4988	4988	96835	96835	53.6	5.15	88.73	11	4773	2	45	8	0	1	0
KR13_S3.018	Prokaryote (-1)	5656	56	24	0.00	0.00	0.00	262104	0	123	123	5907	5907	2130	2130	108422	108422	63.0	3.02	89.38	11	330	56	0	0	0	0	0
KR13_S3.019	Prokaryote (-1)	5656	56	24	42.14	37.73	1.39	1014445	0	534	534	3381	3381	1899	1899	27061	27061	36.4	4.99	84.62	11	1358	29	12	5	3	3	4
KR13_S3.020	Prokaryote (-1)	5656	56	24	48.50	18.88	82.61	614202	0	509	509	1401	1401	1206	1206	4998	4998	67.0	2.18	91.71	11	889	14	23	17	2	0	0
KR13_S3.021	Prokaryote (-1)	5656	56	24	91.20	10.82	100.00	6248462	0	2307	2307	3957	3957	2708	2708	55622	55622	46.6	2.93	85.07	11	7704	4	46	6	0	0	0
KR13_S3.022	Prokaryote (-1)	5656	56	24	34.91	10.88	23.53	516427	0	517	517	1017	1017	998	998	8048	8048	64.6	2.60	92.09	11	731	31	14	8	3	0	0
KR13_S3.023	Prokaryote (-1)	5656	56	24	28.66	25.46	2.15	797155	0	547	547	1756	1756	1457	1457	16608	16608	57.8	8.13	83.63	11	883	34	13	1	1	2	5
KR13_S3.024	Prokaryote (-1)	5656	56	24	15.19	18.52	33.33	449714	0	277	277	2382	2382	1623	1623	16573	16573	60.9	6.00	90.11	11	540	46	6	2	1	0	1
KR13_S3.025	Prokaryote (-1)	5656	56	24	41.44	11.87	0.00	905986	0	494	494	3071	3071	1833	1833	29477	29477	38.8	5.29	80.96	11	1283	19	31	4	2	0	0
KR13_S3.026	Prokaryote (-1)	5656	56	24	37.45	0.38	100.00	1950387	0	1595	1595	1396	1396	1222	1222	5449	5449	68.0	2.68	90.14	11	3252	39	16	1	0	0	0
KR13_S3.027	Prokaryote (-1)	5656	56	24	95.37	49.72	65.91	3244521	0	1458	1458	3690	3690	2225	2225	24742	24742	42.4	2.50	87.82	11	4433	3	27	17	9	0	0
KR13_S3.028	Prokaryote (-1)	5656	56	24	52.70	10.19	0.00	3791736	0	3136	3136	1419	1419	1209	1209	36441	36441	52.8	4.87	86.53	11	6113	31	22	2	1	0	0
KR13_S3.029	Prokaryote (-1)	5656	56	24	25.52	15.51	20.00	278160	0	172	172	2887	2887	1617	1617	19251	19251	62.5	5.17	88.06	11	343	24	23	5	3	1	0
KR13_S3.030	Prokaryote (-1)	5656	56	24	34.95	19.91	40.54	481353	0	200	200	4769	4769	2406	2406	14610	14610	63.3	2.22	91.32	11	504	37	10	3	2	3	1
KR13_S3.031	Prokaryote (-1)	5656	56	24	50.00	35.14	2.38	1048381	0	540	540	2711	2711	1941	1941	21211	21211	37.2	2.50	86.59	11	1388	13	22	11	1	5	4
KR13_S3.032	Prokaryote (-1)	5656	56	24	58.33	32.50	7.50	670348	0	106	106	19635	19635	6324	6324	94306	94306	40.4	3.82	89.93	11	743	22	9	19	5	1	0
KR13_S3.033	Prokaryote (-1)	5656	56	24	26.98	12.97	0.00	2847063	0	2190	2190	1608	1608	1300	1300	25353	25353	51.3	5.26	85.08	11	4142	35	13	7	1	0	0
KR13_S3.034	Prokaryote (-1)	5656	56	24	54.17	7.87	0.00	676716	0	181	181	9005	9005	3738	3738	131944	131944	37.7	3.93	87.81	11	804	17	29	10	0	0	0
KR13_S3.035	Prokaryote (-1)	5656	56	24	78.90	11.03	0.00	3272394	0	2513	2513	1575	1575	1302	1302	15383	15383	48.7	3.53	91.64	11	4806	13	37	4	2	0	0
KR13_S3.036	Prokaryote (-1)	5656	56	24	94.44	76.05	0.00	4208712	0	1952	1952	3526	3526	2156	2156	25031	25031	30.8	2.00	86.08	11	5910	2	27	22	4	1	0
KR13_S3.037	Prokaryote (-1)	5656	56	24	69.07	10.42	33.33	1351828	0	341	341	7672	7672	3964	3964	23415	23415	65.6	3.34	90.74	11	1468	12	41	3	0	0	0
KR13_S3.038	Prokaryote (-1)	5656	56	24	100.00	9.09	50.00	2601920	0	954	954	3997	3997	2727	2727	23398	23398	40.8	3.61	86.97	11	2995	0	52	4	0	0	0
KR13_S3.039	Prokaryote (-1)	5656	56	24	49.57	0.52	100.00	1889929	0	794	794	3462	3462	2380	2380	27810	27810	34.3	2.09	82.94	11	2437	32	23	1	0	0	0
KR13_S3.040	Prokaryote (-1)	5656	56	24	66.67	0.76	100.00	1259597	0	605	605	3520	3520	2081	2081	16287	16287	61.3	3.99	92.38	11	1657	19	35	2	0	0	0
KR13_S3.041	Prokaryote (-1)	5656	56	24	58.38	45.27	0.00	1793313	0	1568	1568	1205	1205	1143	1143	12120	12120	63.6	3.39	90.84	11	2653	22	18	11	4	1	0
KR13_S3.042	Prokaryote (-1)	5656	56	24	31.93	21.99	0.00	1404703	0	970	970	2052	2052	1448	1448	15136	15136	41.6	6.22	84.78	11	1965	33	14	5	4	0	0
KR13_S3.043	Prokaryote (-1)	5656	56	24	100.00	10.65	14.29	3393817	0	648	648	13368	13368	5237	5237	62814	62814	56.0	5.66	86.39	11	3570	0	49	7	0	0	0
KR13_S3.044	Prokaryote (-1)	5656	56	24	70.83	46.23	6.90	2555329	0	753	753	5972	5972	3393	3393	196055	196055	36.0	3.89	86.02	11	2953	13	20	20	3	0	0
KR13_S3.045	Prokaryote (-1)	5656	56	24	22.22	8.33	50.00	473045	0	253	253	2509	2509	1869	1869	75589	75589	42.2	6.46	87.67	11	646	50	4	2	0	0	0
KR13_S3.046	Prokaryote (-1)	5656	56	24	64.81	53.66	24.46	968043	0	917	917	1084	1084	1055	1055	19645	19645	64.6	3.35	90.55	11	1526	10	14	11	10	7	4
KR13_S3.047	Prokaryote (-1)	5656	56	24	24.77	2.84	12.50	1106216	0	559	559	3481	3481	1978	1978	55892	55892	63.6	4.06	89.92	11	1401	41	11	2	2	0	0
KR13_S3.048	Prokaryote (-1)	5656	56	24	62.50	12.07	36.36	1652361	0	631	631	8348	8348	2618	2618	39567	39567	67.3	2.54	89.31	11	2026	19	30	5	2	0	0
KR13_S3.049	Prokaryote (-1)	5656	56	24	83.33	6.99	83.33	1189707	0	339	339	6462	6462	3509	3509	31609	31609	38.1	3.54	85.51	11	1377	4	40	12	0	0	0
KR13_S3.050	Prokaryote (-1)	5656	56	24	99.24	131.33	0.00	4502624	0	4198	4198	1114	1114	1072	1072	35129	35129	43.3	3.53	87.18	11	7409	2	15	14	7	9	9
KR13_S3.051	Prokaryote (-1)	5656	56	24	0.00	0.00	0.00	168002	0	37	37	33044	33044	4540	4540	58693	58693	44.2	3.41	88.57	11	275	56	0	0	0	0	0
KR13_S3.052	Prokaryote (-1)	5656	56	24	47.92	12.50	66.67	999589	0	869	869	1315	1315	1150	1150	6305	6305	68.7	2.37	91.31	11	1602	39	14	3	0	0	0
KR13_S3.053	Prokaryote (-1)	5656	56	24	50.68	24.13	11.11	1158745	0	1115	1115	1084	1084	1039	1039	10806	10806	65.1	3.09	90.93	11	1870	27	20	9	0	0	0
KR13_S3.054	Prokaryote (-1)	5656	56	24	87.50	137.25	18.87	2258036	0	1660	1660	1616	1616	1360	1360	18738	18738	34.7	2.84	90.39	11	3637	3	10	17	13	8	5
KR13_S3.055	Prokaryote (-1)	5656	56	24	49.19	25.86	0.00	667745	0	710	710	916	916	940	940	20131	20131	42.6	5.93	88.90	11	1194	20	16	15	3	2	0
KR13_S3.056	Prokaryote (-1)	5656	56	24	73.23	20.63	33.33	899710	0	316	316	4006	4006	2847	2847	18955	18955	29.6	4.22	88.20	11	1287	8	36	12	0	0	0
KR13_S3.057	Prokaryote (-1)	5656	56	24	58.95	35.42	0.00	3196195	0	1402	1402	3632	3632	2279	2279	33006	33006	34.1	1.71	84.17	11	4163	34	12	10	0	0	0
KR13_S3.058	Prokaryote (-1)	5656	56	24	56.28	15.16	0.00	970077	0	459	459	2952	2952	2113	2113	25914	25914	39.4	5.10	85.75	11	1193	18	24	14	0	0	0
KR13_S3.059	Prokaryote (-1)	5656	56	24	82.29	54.52	1.02	1495505	0	1047	1047	1934	1934	1428	1428	15767	15767	40.8	4.79	87.68	11	2268	5	26	11	6	4	4
KR13_S3.060	Prokaryote (-1)	5656	56	24	100.00	12.50	0.00	3575705	0	172	172	39326	39326	20788	20788	182909	182909	62.6	4.54	89.24	11	3378	0	51	5	0	0	0
KR13_S3.061	Prokaryote (-1)	5656	56	24	47.21	1.42	0.00	3127681	0	701	701	7890	7890	4461	4461	43174	43174	66.6	2.98	91.51	11	3557	28	26	2	0	0	0
KR13_S3.062	Prokaryote (-1)	5656	56	24	49.76	23.17	4.76	750798	0	764	764	1032	1032	982	982	3360	3360	37.7	2.08	88.16	11	1330	23	20	9	4	0	0
KR13_S3.063	Prokaryote (-1)	5656	56	24	67.94	39.97	8.33	2228072	0	2089	2089	1130	1130	1066	1066	37531	37531	62.5	3.86	89.16	11	3698	12	26	15	3	0	0
KR13_S3.064	Prokaryote (-1)	5656	56	24	37.01	8.33	0.00	3961885	0	2137	2137	4524	4524	1853	1853	35054	35054	67.8	3.08	89.33	11	5481	43	11	2	0	0	0
KR13_S3.065	Prokaryote (-1)	5656	56	24	58.33	69.80	1.53	2148052	0	1605	1605	1600	1600	1338	1338	20433	20433	46.0	4.65	88.86	11	3109	11	15	15	4	4	7
KR13_S3.066	Prokaryote (-1)	5656	56	24	43.46	21.70	81.82	1869838	0	235	235	17685	17685	7956	7956	53164	53164	64.6	2.55	89.98	11	1853	35	10	11	0	0	0
KR13_S3.067	Prokaryote (-1)	5656	56	24	48.74	0.52	100.00	1656431	0	928	928	2705	2705	1784	1784	49781	49781	38.6	4.75	84.33	11	2287	28	27	1	0	0	0
KR13_S3.068	Prokaryote (-1)	5656	56	24	95.83	18.73	76.92	3193884	0	912	912	5475	5475	3502	3502	41193	41193	40.6	3.47	85.99	11	3743	1	48	4	3	0	0
KR13_S3.069	Prokaryote (-1)	5656	56	24	48.45	7.55	0.00	1359443	0	451	451	9721	9721	3014	3014	60182	60182	64.7	5.35	90.27	11	1510	32	18	6	0	0	0
KR13_S3.070	Prokaryote (-1)	5656	56	24	21.13	0.46	0.00	2121317	0	1427	1427	2075	2075	1486	1486	14693	14693	61.3	4.24	91.39	11	3269	43	12	1	0	0	0
KR13_S3.071	Prokaryote (-1)	5656	56	24	95.37	11.17	0.00	6090354	0	2318	2318	5333	5333	2627	2627	81440	81440	57.2	2.43	86.83	11	7278	2	48	6	0	0	0
KR13_S3.072	Prokaryote (-1)	5656	56	24	12.50	8.33	50.00	1424589	0	1309	1309	1220	1220	1088	1088	5655	5655	69.8	2.46	90.43	11	2513	53	1	2	0	0	0
KR13_S3.073	Prokaryote (-1)	5656	56	24	86.57	73.01	0.00	2353225	0	1300	1300	2796	2796	1810	1810	24287	24287	36.4	2.06	88.65	11	3195	9	25	15	5	1	1
KR13_S3.074	Prokaryote (-1)	5656	56	24	58.33	8.33	0.00	590770	0	70	70	16958	16958	8439	8439	73383	73383	40.2	1.98	90.96	11	683	30	21	5	0	0	0
KR13_S3.075	Prokaryote (-1)	5656	56	24	80.11	14.64	0.00	3514787	0	2268	2268	1961	1961	1549	1549	12678	12678	58.5	3.56	89.26	11	4880	9	37	8	2	0	0
KR13_S3.076	Prokaryote (-1)	5656	56	24	75.69	18.94	0.00	837929	0	254	254	5142	5142	3298	3298	26338	26338	33.8	1.86	80.74	11	998	11	34	11	0	0	0
KR13_S3.077	Prokaryote (-1)	5656	56	24	70.45	8.33	0.00	1608568	0	362	362	13748	13748	4443	4443	67428	67428	36.6	3.07	85.08	11	1919	12	42	2	0	0	0
KR13_S3.078	Prokaryote (-1)	5656	56	24	78.12	23.76	0.00	2049593	0	826	826	5612	5612	2481	2481	69169	69169	41.0	6.43	84.69	11	2601	6	33	13	3	1	0
KR13_S3.079	Prokaryote (-1)	5656	56	24	53.91	2.08	0.00	693409	0	143	143	14282	14282	4849	4849	43892	43892	36.8	2.83	87.84	11	823	34	21	1	0	0	0
KR13_S3.080	Prokaryote (-1)	5656	56	24	95.83	47.90	5.36	2924404	0	1256	1256	8811	8811	2328	2328	61311	61311	42.3	4.64	90.14	11	3833	1	31	13	9	1	1
KR13_S3.081	Prokaryote (-1)	5656	56	24	95.83	14.18	0.00	2583027	0	565	565	9636	9636	4571	4571	74185	74185	42.5	2.41	87.57	11	2831	1	44	11	0	0	0
KR13_S3.082	Prokaryote (-1)	5656	56	24	40.03	9.26	0.00	6645203	0	2734	2734	4146	4146	2430	2430	90722	90722	45.7	2.34	84.56	11	8411	36	16	4	0	0	0
KR13_S3.083	Prokaryote (-1)	5656	56	24	87.50	40.28	0.00	1933020	0	239	239	95015	95015	8087	8087	565246	565246	36.5	5.89	88.35	11	2059	3	38	15	0	0	0
KR13_S3.084	Prokaryote (-1)	5656	56	24	62.88	12.50	0.00	764298	0	129	129	19511	19511	5924	5924	45410	45410	38.4	1.70	86.49	11	855	34	17	5	0	0	0
KR13_S3.085	Prokaryote (-1)	5656	56	24	99.54	36.32	12.50	3647597	0	1357	1357	5377	5377	2687	2687	159274	159274	37.2	3.14	90.57	11	4726	1	41	13	1	0	0
KR13_S3.086	Prokaryote (-1)	5656	56	24	90.82	27.87	4.35	2832856	0	1694	1694	2320	2320	1672	1672	22772	22772	57.1	5.15	87.26	11	3537	4	37	11	4	0	0
KR13_S3.087	Prokaryote (-1)	5656	56	24	62.62	45.85	3.03	2045159	0	1680	1680	1339	1339	1217	1217	17745	17745	66.9	3.81	90.63	11	2974	13	25	12	5	1	0
KR13_S3.088	Prokaryote (-1)	5656	56	24	79.34	5.30	0.00	1319138	0	424	424	6178	6178	3111	3111	43406	43406	36.7	2.45	88.78	11	1745	15	37	4	0	0	0
KR13_S3.089	Prokaryote (-1)	5656	56	24	95.83	53.01	15.62	1777777	0	852	852	4234	4234	2086	2086	25709	25709	45.3	4.35	90.05	11	2316	1	37	11	7	0	0
KR13_S3.090	Prokaryote (-1)	5656	56	24	60.19	33.43	0.00	614152	0	234	234	5330	5330	2624	2624	28897	28897	32.2	1.69	86.78	11	819	15	18	20	2	1	0
KR13_S3.091	Prokaryote (-1)	5656	56	24	59.38	31.07	2.04	993065	0	698	698	1788	1788	1422	1422	23034	23034	46.4	2.69	88.84	11	1430	12	18	18	7	0	1
KR13_S3.092	Prokaryote (-1)	5656	56	24	82.95	8.33	0.00	1647768	0	311	311	16291	16291	5298	5298	55231	55231	39.6	1.89	90.29	11	1815	6	48	2	0	0	0
KR13_S3.093	Prokaryote (-1)	5656	56	24	78.65	50.81	1.61	4031451	0	2808	2808	1816	1816	1435	1435	29771	29771	38.6	2.45	86.73	11	6242	12	22	10	8	3	1
KR13_S3.094	Prokaryote (-1)	5656	56	24	100.00	19.10	0.00	4879286	0	782	782	82097	82097	6239	6239	228211	228211	48.5	4.63	88.83	11	4957	0	49	7	0	0	0
KR13_S3.095	Prokaryote (-1)	5656	56	24	47.72	15.86	27.78	3600725	0	989	989	16187	16187	3640	3640	62225	62225	64.8	3.47	89.42	11	4130	38	12	3	1	2	0
KR13_S3.096	Prokaryote (-1)	5656	56	24	0.00	0.00	0.00	253664	0	397	397	607	607	638	638	2137	2137	60.6	3.93	89.15	11	555	56	0	0	0	0	0
KR13_S3.097	Prokaryote (-1)	5656	56	24	10.55	8.33	0.00	1139522	0	517	517	8658	8658	2204	2204	121298	121298	61.7	4.63	89.71	11	1467	44	11	0	1	0	0
KR13_S3.098	Prokaryote (-1)	5656	56	24	41.29	0.00	0.00	359719	0	124	124	4439	4439	2900	2900	24259	24259	31.8	1.88	89.09	11	436	26	30	0	0	0	0
KR13_S3.099	Prokaryote (-1)	5656	56	24	22.63	4.55	0.00	933495	0	1053	1053	906	906	886	886	6951	6951	64.5	4.26	89.63	11	1632	35	19	2	0	0	0
KR13_S3.100	Prokaryote (-1)	5656	56	24	0.00	0.00	0.00	595608	0	399	399	1971	1971	1492	1492	12054	12054	43.6	5.59	86.21	11	1185	56	0	0	0	0	0
KR13_S3.101	Prokaryote (-1)	5656	56	24	84.75	17.71	66.67	3555342	0	1801	1801	2753	2753	1974	1974	13226	13226	60.3	3.68	83.09	11	4368	9	43	3	1	0	0
KR13_S3.102	Prokaryote (-1)	5656	56	24	38.58	4.55	0.00	6630494	0	2573	2573	4402	4402	2576	2576	75568	75568	38.7	2.57	87.78	11	8155	32	22	2	0	0	0
KR13_S3.103	Prokaryote (-1)	5656	56	24	47.57	17.01	0.00	5624727	0	4790	4790	1295	1295	1174	1174	21970	21970	36.5	1.83	88.15	11	8499	33	14	9	0	0	0
KR13_S3.104	Prokaryote (-1)	5656	56	24	95.83	11.93	0.00	1740918	0	346	346	13553	13553	5031	5031	53517	53517	40.0	2.53	90.62	11	1957	1	45	6	3	1	0
KR13_S3.105	Prokaryote (-1)	5656	56	24	28.25	25.00	11.11	10182477	0	9876	9876	1062	1062	1031	1031	47512	47512	65.7	3.21	90.10	11	17530	43	10	0	3	0	0
KR13_S3.106	Prokaryote (-1)	5656	56	24	100.00	0.00	0.00	4231110	0	323	323	29473	29473	13099	13099	73889	73889	48.8	3.63	86.54	11	4101	0	56	0	0	0	0
KR13_S3.107	Prokaryote (-1)	5656	56	24	57.23	43.75	0.00	2767505	0	538	538	11090	11090	5144	5144	59962	59962	37.9	1.88	85.94	11	3001	33	13	8	1	1	0
KR13_S3.108	Prokaryote (-1)	5656	56	24	89.12	81.81	0.00	3936814	0	3183	3183	1662	1662	1236	1236	21020	21020	44.4	4.88	89.28	11	5757	4	27	13	7	4	1
KR13_S3.109	Prokaryote (-1)	5656	56	24	75.00	0.00	0.00	3417863	0	379	379	25291	25291	9018	9018	83473	83473	55.5	3.92	87.91	11	3089	6	50	0	0	0	0
KR13_S3.110	Prokaryote (-1)	5656	56	24	91.67	4.17	0.00	1136855	0	101	101	26160	26160	11255	11255	122570	122570	42.1	1.77	92.14	11	1225	2	51	3	0	0	0
KR13_S3.111	Prokaryote (-1)	5656	56	24	18.75	5.21	50.00	3279790	0	1583	1583	3866	3866	2071	2071	44231	44231	39.4	4.96	84.91	11	4722	50	4	2	0	0	0
KR13_S3.112	Prokaryote (-1)	5656	56	24	57.29	13.78	0.00	846649	0	700	700	1412	1412	1209	1209	7141	7141	45.5	4.22	86.98	11	1337	12	29	14	1	0	0
KR13_S3.113	Prokaryote (-1)	5656	56	24	91.67	80.36	0.56	5654937	0	3600	3600	2784	2784	1570	1570	43866	43866	50.0	4.68	87.67	11	7755	2	26	11	6	4	7
KR13_S3.114	Prokaryote (-1)	5656	56	24	16.67	0.00	0.00	177929	0	90	90	9010	9010	1976	1976	72140	72140	43.4	5.48	88.44	11	224	42	14	0	0	0	0
KR13_S3.115	Prokaryote (-1)	5656	56	24	100.00	69.41	2.17	5597299	0	767	767	22892	22892	7297	7297	202710	202710	56.5	9.71	87.52	11	5532	0	14	40	2	0	0
KR13_S3.116	Prokaryote (-1)	5656	56	24	81.94	56.84	2.90	3909908	0	2796	2796	1695	1695	1398	1398	31079	31079	36.0	1.88	91.12	11	6158	7	17	20	9	2	1
KR13_S3.117	Prokaryote (-1)	5656	56	24	72.77	59.37	3.64	2448918	0	3120	3120	729	729	784	784	9740	9740	47.4	3.72	90.05	11	4517	10	26	12	3	4	1
KR13_S3.118	Prokaryote (-1)	5656	56	24	44.07	31.82	0.00	2819586	0	2378	2378	1394	1394	1185	1185	35212	35212	39.8	3.46	87.94	11	4475	20	20	8	6	1	1
KR13_S3.119	Prokaryote (-1)	5656	56	24	58.90	18.03	0.00	4096999	0	3886	3886	1098	1098	1054	1054	29401	29401	60.2	3.10	86.89	11	7303	25	21	10	0	0	0
KR13_S3.120	Prokaryote (-1)	5656	56	24	95.83	13.89	0.00	1466410	0	263	263	22739	22739	5575	5575	68349	68349	41.3	3.43	92.02	11	1696	1	49	6	0	0	0
KR13_S3.121	Prokaryote (-1)	5656	56	24	25.18	16.67	0.00	7819135	0	7847	7847	1036	1036	996	996	24406	24406	63.7	2.93	89.90	11	13203	44	8	3	1	0	0
KR13_S3.122	Prokaryote (-1)	5656	56	24	53.04	37.50	0.00	3506659	0	3072	3072	1212	1212	1141	1141	15210	15210	29.9	2.01	85.26	11	6153	32	15	5	2	2	0
KR13_S3.123	Prokaryote (-1)	5656	56	24	6.11	0.00	0.00	3839043	0	2302	2302	2432	2432	1667	1667	36387	36387	58.3	4.13	86.83	11	5099	51	5	0	0	0	0
KR13_S3.124	Prokaryote (-1)	5656	56	24	64.20	113.78	0.00	5304272	0	5250	5250	1052	1052	1010	1010	55952	55952	34.3	1.75	87.20	11	9328	18	17	12	4	2	3
KR13_S3.125	Prokaryote (-1)	5656	56	24	66.67	0.00	0.00	437265	0	75	75	24321	24321	5830	5830	46928	46928	46.6	1.89	93.26	11	498	9	47	0	0	0	0
KR13_S3.126	Prokaryote (-1)	5656	56	24	91.67	47.83	13.79	2261053	0	1380	1380	2688	2688	1638	1638	25862	25862	44.5	3.68	87.66	11	3142	2	32	20	1	1	0
KR13_S3.127	Prokaryote (-1)	5656	56	24	24.26	5.07	33.33	724028	0	618	618	1253	1253	1171	1171	13924	13924	34.0	1.60	85.65	11	1200	36	17	3	0	0	0
KR13_S3.128	Prokaryote (-1)	5656	56	24	43.29	23.96	25.00	577632	0	354	354	2287	2287	1631	1631	23481	23481	66.9	2.73	92.97	11	739	30	13	9	3	1	0
KR13_S3.129	Prokaryote (-1)	5656	56	24	70.37	33.16	7.69	1203485	0	467	467	5705	5705	2577	2577	36458	36458	38.5	3.54	84.85	11	1557	14	29	13	0	0	0
KR13_S3.130	Prokaryote (-1)	5656	56	24	73.84	23.67	31.25	853310	0	339	339	3613	3613	2517	2517	14828	14828	36.8	1.62	87.61	11	1168	14	30	10	2	0	0
KR13_S3.131	Prokaryote (-1)	5656	56	24	52.28	27.67	0.00	5273805	0	4391	4391	1346	1346	1201	1201	16059	16059	32.4	1.87	87.09	11	8653	22	18	11	5	0	0
KR13_S3.132	Prokaryote (-1)	5656	56	24	89.35	1.22	0.00	1995292	0	457	457	10307	10307	4366	4366	44957	44957	40.6	2.24	88.21	11	2203	8	45	3	0	0	0
KR13_S3.133	Prokaryote (-1)	5656	56	24	100.00	0.00	0.00	2204072	0	490	490	8338	8338	4498	4498	47361	47361	61.1	2.99	88.72	11	2331	0	56	0	0	0	0
KR13_S3.134	Prokaryote (-1)	5656	56	24	53.13	11.63	0.00	2629431	0	2654	2654	1053	1053	990	990	6391	6391	52.6	4.66	87.96	11	4304	32	19	5	0	0	0
KR13_S3.135	Prokaryote (-1)	5656	56	24	95.83	0.00	0.00	4418692	0	480	480	18716	18716	9205	9205	64731	64731	60.8	3.16	83.91	11	4126	1	55	0	0	0	0
KR13_S3.136	Prokaryote (-1)	5656	56	24	68.23	46.18	0.00	3584681	0	1117	1117	6268	6268	3209	3209	52371	52371	40.5	2.06	85.88	11	3997	13	20	17	5	1	0
KR13_S3.137	Prokaryote (-1)	5656	56	24	43.73	2.08	0.00	2556876	0	384	384	18366	18366	6658	6658	133901	133901	44.1	2.09	89.94	11	2480	37	18	1	0	0	0
KR13_S3.138	Prokaryote (-1)	5656	56	24	95.83	0.00	0.00	1679926	0	122	122	32814	32814	13769	13769	99298	99298	44.0	2.53	90.37	11	1707	1	55	0	0	0	0
KR13_S3.139	Prokaryote (-1)	5656	56	24	85.04	30.29	7.14	1629431	0	1096	1096	1985	1985	1486	1486	26201	26201	45.9	3.33	92.31	11	2449	5	31	16	4	0	0
KR13_S3.140	Prokaryote (-1)	5656	56	24	64.98	15.10	57.14	1095374	0	528	528	3068	3068	2074	2074	16832	16832	37.6	1.86	85.20	11	1604	18	31	7	0	0	0
KR13_S3.141	Prokaryote (-1)	5656	56	24	46.68	14.79	0.00	3229794	0	2905	2905	1164	1164	1111	1111	24385	24385	40.7	2.14	88.98	11	5018	34	16	6	0	0	0
KR13_S3.142	Prokaryote (-1)	5656	56	24	89.81	0.76	0.00	6147943	0	900	900	26299	26299	6831	6831	168473	168473	54.6	2.77	90.13	11	6225	7	47	2	0	0	0
KR13_S3.143	Prokaryote (-1)	5656	56	24	91.67	10.65	100.00	3693737	0	1445	1445	3787	3787	2556	2556	40965	40965	43.4	4.75	87.93	11	5192	2	49	5	0	0	0
KR13_S3.144	Prokaryote (-1)	5656	56	24	89.81	48.52	2.13	10230553	0	9916	9916	1012	1012	1031	1031	17673	17673	62.6	2.05	89.78	11	17337	10	23	14	7	2	0
KR13_S3.145	Prokaryote (-1)	5656	56	24	79.08	29.17	3.85	3069726	0	1778	1778	3027	3027	1726	1726	26476	26476	38.1	2.31	91.87	11	4023	18	23	11	3	1	0
KR13_S3.146	Prokaryote (-1)	5656	56	24	59.02	34.33	17.65	2116102	0	1236	1236	2803	2803	1712	1712	17559	17559	68.7	1.84	93.52	11	2897	25	18	11	2	0	0
KR13_S3.147	Prokaryote (-1)	5656	56	24	58.39	51.09	2.63	2182170	0	2576	2576	848	848	847	847	4624	4624	40.9	2.14	87.65	11	4044	19	17	11	9	0	0
KR13_S3.148	Prokaryote (-1)	5656	56	24	87.50	5.07	0.00	2673137	0	229	229	98020	98020	11673	11673	322811	322811	39.6	2.23	90.17	11	2614	13	40	3	0	0	0
KR13_S3.149	Prokaryote (-1)	5656	56	24	45.83	0.00	0.00	1923574	0	513	513	6233	6233	3749	3749	26847	26847	41.4	2.89	87.93	11	2111	45	11	0	0	0	0
KR13_S3.150	Prokaryote (-1)	5656	56	24	44.22	14.58	0.00	4277219	0	4212	4212	1084	1084	1015	1015	11485	11485	72.0	2.60	91.82	11	7227	39	14	2	1	0	0
KR13_S3.151	Prokaryote (-1)	5656	56	24	60.63	48.63	16.00	1090850	0	653	653	2762	2762	1670	1670	24040	24040	66.1	3.74	92.10	11	1526	23	12	11	7	3	0
KR13_S3.152	Prokaryote (-1)	5656	56	24	100.00	0.00	0.00	3059148	0	63	63	102683	102683	48557	48557	690727	690727	65.0	1.51	91.44	11	2839	0	56	0	0	0	0
KR13_S3.153	Prokaryote (-1)	5656	56	24	86.11	38.45	0.00	3482466	0	990	990	10565	10565	3517	3517	80434	80434	41.6	1.92	90.99	11	4096	12	26	14	3	1	0
KR13_S3.154	Prokaryote (-1)	5656	56	24	83.39	123.63	1.60	12225623	0	10700	10700	1225	1225	1142	1142	24325	24325	42.2	2.01	90.20	11	18172	12	13	11	12	5	3
KR13_S3.155	Prokaryote (-1)	5656	56	24	86.57	0.00	0.00	1223532	0	118	118	31951	31951	10368	10368	66273	66273	45.5	2.27	94.09	11	1312	6	50	0	0	0	0
KR13_S3.156	Prokaryote (-1)	5656	56	24	99.54	102.44	0.00	6605965	0	4501	4501	1926	1926	1467	1467	40454	40454	45.9	2.10	91.20	11	9027	1	14	23	16	2	0
KR13_S3.157	Prokaryote (-1)	5656	56	24	74.83	41.85	0.00	2725385	0	2405	2405	1239	1239	1133	1133	14277	14277	38.3	1.70	87.63	11	4599	15	22	16	1	1	1
KR13_S3.158	Prokaryote (-1)	5656	56	24	91.67	43.90	0.00	4271597	0	1799	1799	4531	4531	2374	2374	32196	32196	47.3	4.89	90.01	11	5580	2	37	17	0	0	0
KR13_S3.159	Prokaryote (-1)	5656	56	24	90.82	51.28	5.88	5496189	0	4529	4529	1436	1436	1213	1213	27038	27038	53.4	5.99	87.65	11	8361	4	28	19	5	0	0
KR13_S3.160	Prokaryote (-1)	5656	56	24	63.59	62.45	0.00	3150279	0	2366	2366	1605	1605	1331	1331	32354	32354	38.3	1.78	92.09	11	4507	16	23	9	6	1	1
KR13_S3.161	Prokaryote (-1)	5656	56	24	95.83	0.46	0.00	1501596	0	297	297	16491	16491	5055	5055	83728	83728	40.9	2.04	87.71	11	1850	1	54	1	0	0	0
KR13_S3.162	Prokaryote (-1)	5656	56	24	55.71	31.25	5.88	2216014	0	1448	1448	2578	2578	1530	1530	37603	37603	66.3	2.70	91.25	11	3281	31	17	5	2	1	0
KR13_S3.163	Prokaryote (-1)	5656	56	24	80.35	72.17	0.00	5577826	0	5976	5976	946	946	933	933	10241	10241	50.0	2.71	89.53	11	9922	11	24	12	6	2	1
KR13_S3.164	Prokaryote (-1)	5656	56	24	91.67	4.17	0.00	2986721	0	177	177	238655	238655	16874	16874	464501	464501	38.9	2.30	90.33	11	2876	12	43	1	0	0	0
KR13_S3.165	Prokaryote (-1)	5656	56	24	70.03	16.67	0.00	8461674	0	7571	7571	1157	1157	1117	1117	51194	51194	68.2	2.23	91.54	11	13634	27	26	2	1	0	0
KR13_S3.166	Prokaryote (-1)	5656	56	24	46.50	72.22	5.13	11516839	0	10203	10203	1204	1204	1128	1128	134386	134386	68.6	2.53	91.96	11	19135	41	7	3	3	1	1
KR13_S3.167	Prokaryote (-1)	5656	56	24	52.62	51.58	0.00	2685599	0	2846	2846	946	946	943	943	25276	25276	46.7	2.49	91.36	11	4480	26	14	8	8	0	0
KR13_S3.168	Prokaryote (-1)	5656	56	24	83.74	103.19	0.00	6686329	0	7079	7079	940	940	944	944	12840	12840	57.0	1.71	86.55	11	11622	11	16	14	10	4	1
KR13_S3.169	Prokaryote (-1)	5656	56	24	4.92	0.00	0.00	165975	0	250	250	644	644	663	663	1503	1503	38.5	2.02	93.83	11	360	53	3	0	0	0	0
KR13_S3.170	Prokaryote (-1)	5656	56	24	42.00	0.00	0.00	1959589	0	1323	1323	1817	1817	1481	1481	8470	8470	58.5	1.87	85.91	11	2761	22	34	0	0	0	0
KR13_S3.171	Prokaryote (-1)	5656	56	24	39.88	15.48	0.00	8052337	0	6500	6500	1432	1432	1238	1238	131487	131487	62.3	1.98	90.24	11	12833	32	18	5	1	0	0
KR13_S3.172	Prokaryote (-1)	5656	56	24	0.00	0.00	0.00	103307	0	67	67	1542	1542	1541	1541	16803	16803	65.2	2.22	88.84	11	146	56	0	0	0	0	0
