Bin Id	# unique markers (of 43)	# multi-copy	Taxonomy
Old_saline_rock_biofilm.001	0	0	NA
Old_saline_rock_biofilm.002	16	1	k__Bacteria;p__Actinobacteria;c__Actinobacteria
Old_saline_rock_biofilm.003	17	2	k__Archaea (root)
Old_saline_rock_biofilm.004	3	0	k__Bacteria;p__Proteobacteria;c__Deltaproteobacteria
Old_saline_rock_biofilm.005	9	8	k__Bacteria;p__Proteobacteria;c__Deltaproteobacteria;o__Myxococcales;f__Myxococcaceae
Old_saline_rock_biofilm.006	7	4	k__Bacteria (root)
Old_saline_rock_biofilm.007	31	3	k__Bacteria;p__Proteobacteria;c__Deltaproteobacteria;o__Desulfovibrionales;f__Desulfovibrionaceae;g__Desulfovibrio
Old_saline_rock_biofilm.008	40	3	k__Bacteria;p__Proteobacteria;c__Deltaproteobacteria;o__Desulfobacterales;f__Desulfobulbaceae
Old_saline_rock_biofilm.009	15	15	k__Bacteria;p__Proteobacteria;c__Deltaproteobacteria;o__Desulfovibrionales;f__Desulfovibrionaceae;g__Desulfovibrio
Old_saline_rock_biofilm.010	31	1	k__Bacteria;p__Proteobacteria;c__Deltaproteobacteria;o__Myxococcales
Old_saline_rock_biofilm.011	21	2	k__Bacteria;p__Proteobacteria;c__Deltaproteobacteria;o__Myxococcales;f__Myxococcaceae
Old_saline_rock_biofilm.012	43	0	k__Bacteria;p__Proteobacteria;c__Epsilonproteobacteria;o__Campylobacterales;f__Helicobacteraceae;g__Sulfurimonas
Old_saline_rock_biofilm.013	17	14	k__Bacteria;p__Proteobacteria;c__Deltaproteobacteria;o__Desulfobacterales;f__Desulfobulbaceae
Old_saline_rock_biofilm.014	23	20	k__Bacteria;p__Proteobacteria;c__Betaproteobacteria
Old_saline_rock_biofilm.015	19	6	k__Bacteria;p__Proteobacteria;c__Deltaproteobacteria
Old_saline_rock_biofilm.016	17	14	k__Bacteria;p__Proteobacteria;c__Betaproteobacteria
Old_saline_rock_biofilm.017	43	0	k__Bacteria;p__Proteobacteria;c__Betaproteobacteria;o__Rhodocyclales;f__Rhodocyclaceae
Old_saline_rock_biofilm.018	12	0	k__Bacteria;p__Proteobacteria;c__Deltaproteobacteria;o__Desulfovibrionales;f__Desulfovibrionaceae;g__Desulfovibrio
Old_saline_rock_biofilm.019	13	15	k__Bacteria;p__Actinobacteria;c__Actinobacteria
Old_saline_rock_biofilm.020	1	0	k__Bacteria;p__Proteobacteria;c__Betaproteobacteria
Old_saline_rock_biofilm.021	18	0	k__Bacteria;p__Proteobacteria;c__Gammaproteobacteria
Old_saline_rock_biofilm.022	19	11	k__Bacteria (root)
Old_saline_rock_biofilm.023	2	0	k__Bacteria;p__Proteobacteria;c__Betaproteobacteria;o__Hydrogenophilales;f__Hydrogenophilaceae;g__Thiobacillus;s__Thiobacillus_denitrificans
Old_saline_rock_biofilm.024	13	2	k__Bacteria (root)
Old_saline_rock_biofilm.025	17	7	k__Bacteria;p__Proteobacteria;c__Deltaproteobacteria;o__Myxococcales
Old_saline_rock_biofilm.026	11	1	k__Bacteria;p__Proteobacteria;c__Deltaproteobacteria;o__Myxococcales
Old_saline_rock_biofilm.027	20	10	k__Bacteria;p__Proteobacteria;c__Deltaproteobacteria;o__Myxococcales
Old_saline_rock_biofilm.028	0	0	NA
Old_saline_rock_biofilm.029	10	2	k__Bacteria;p__Proteobacteria;c__Deltaproteobacteria;o__Myxococcales
Old_saline_rock_biofilm.030	15	12	k__Bacteria;p__Proteobacteria;c__Deltaproteobacteria;o__Myxococcales
Old_saline_rock_biofilm.031	5	0	k__Bacteria;p__Proteobacteria;c__Epsilonproteobacteria;o__Campylobacterales;f__Helicobacteraceae
Old_saline_rock_biofilm.032	3	0	k__Bacteria;p__Proteobacteria;c__Epsilonproteobacteria;o__Campylobacterales;f__Helicobacteraceae;g__Sulfurimonas
Old_saline_rock_biofilm.033	10	1	k__Bacteria;p__Proteobacteria;c__Deltaproteobacteria;o__Myxococcales
Old_saline_rock_biofilm.034	0	0	NA
Old_saline_rock_biofilm.035	7	1	k__Bacteria;p__Proteobacteria;c__Deltaproteobacteria;o__Myxococcales
Old_saline_rock_biofilm.036	11	20	k__Bacteria
Old_saline_rock_biofilm.037	13	18	k__Bacteria;p__Proteobacteria;c__Deltaproteobacteria
Old_saline_rock_biofilm.038	10	2	k__Bacteria;p__Proteobacteria;c__Deltaproteobacteria;o__Myxococcales
Old_saline_rock_biofilm.039	0	0	NA
Old_saline_rock_biofilm.040	3	0	k__Bacteria;p__Chloroflexi
Old_saline_rock_biofilm.041	12	22	k__Bacteria;p__Spirochaetes;c__Spirochaetia
