Bin Id	Marker lineage	# genomes	# markers	# marker sets	Completeness	Contamination	Strain heterogeneity	Genome size (bp)	# ambiguous bases	# scaffolds	# contigs	N50 (scaffolds)	N50 (contigs)	Mean scaffold length (bp)	Mean contig length (bp)	Longest scaffold (bp)	Longest contig (bp)	GC	GC std (scaffolds > 1kbp)	Coding density	Translation table	# predicted genes	0	1	2	3	4	5+
KR13_N1.001	Prokaryote (-1)	5656	56	24	4.17	0.00	0.00	163409	0	118	118	1468	1468	1384	1384	10825	10825	47.1	6.80	73.21	11	208	55	1	0	0	0	0
KR13_N1.002	Prokaryote (-1)	5656	56	24	19.13	0.00	0.00	282783	0	153	153	2565	2565	1848	1848	60379	60379	63.7	4.53	89.47	11	321	40	16	0	0	0	0
KR13_N1.003	Prokaryote (-1)	5656	56	24	0.00	0.00	0.00	109941	0	94	94	1258	1258	1169	1169	6848	6848	52.6	4.88	77.36	11	162	56	0	0	0	0	0
KR13_N1.004	Prokaryote (-1)	5656	56	24	58.09	18.69	62.50	2317709	0	2185	2185	1147	1147	1060	1060	22703	22703	56.0	6.55	86.55	11	3649	20	30	5	1	0	0
KR13_N1.005	Prokaryote (-1)	5656	56	24	20.83	2.78	0.00	432804	0	294	294	1786	1786	1472	1472	6553	6553	40.5	6.73	77.74	11	623	42	10	2	2	0	0
KR13_N1.006	Prokaryote (-1)	5656	56	24	95.83	69.26	2.02	4141983	0	2628	2628	2160	2160	1576	1576	45735	45735	56.2	7.55	85.76	11	5417	1	19	27	4	2	3
KR13_N1.007	Prokaryote (-1)	5656	56	24	16.67	15.97	4.08	290629	0	105	105	7888	7888	2767	2767	44544	44544	57.3	9.13	80.90	11	263	41	6	1	3	4	1
KR13_N1.008	Prokaryote (-1)	5656	56	24	20.52	4.17	0.00	298221	0	216	216	1620	1620	1380	1380	27212	27212	40.3	6.25	81.27	11	419	47	8	1	0	0	0
KR13_N1.009	Prokaryote (-1)	5656	56	24	79.17	12.88	50.00	4643863	0	201	201	155257	155257	23103	23103	385544	385544	66.2	6.36	91.44	11	4507	18	34	4	0	0	0
KR13_N1.010	Prokaryote (-1)	5656	56	24	25.28	9.26	0.00	463474	0	364	364	1427	1427	1273	1273	15536	15536	42.8	7.11	85.57	11	702	35	14	4	3	0	0
KR13_N1.011	Prokaryote (-1)	5656	56	24	25.95	23.21	0.00	1060478	0	948	948	1203	1203	1118	1118	12673	12673	47.3	7.28	85.58	11	1673	30	16	3	5	1	1
KR13_N1.012	Prokaryote (-1)	5656	56	24	36.38	0.00	0.00	260544	0	168	168	2051	2051	1550	1550	5929	5929	66.6	1.63	90.99	11	343	38	18	0	0	0	0
KR13_N1.013	Prokaryote (-1)	5656	56	24	66.71	41.50	0.00	1412815	0	1012	1012	1779	1779	1396	1396	30350	30350	40.5	5.41	87.66	11	2100	17	25	5	4	4	1
KR13_N1.014	Prokaryote (-1)	5656	56	24	27.75	0.00	0.00	903145	0	621	621	1903	1903	1454	1454	6721	6721	65.4	2.26	91.14	11	1254	39	17	0	0	0	0
KR13_N1.015	Prokaryote (-1)	5656	56	24	56.04	53.35	0.88	1097273	0	934	934	1251	1251	1174	1174	14331	14331	40.4	4.44	88.39	11	1765	16	17	10	3	4	6
KR13_N1.016	Prokaryote (-1)	5656	56	24	80.58	26.22	0.00	1555220	0	753	753	3748	3748	2065	2065	26450	26450	44.2	3.65	90.08	11	2004	14	30	9	3	0	0
KR13_N1.017	Prokaryote (-1)	5656	56	24	57.41	33.66	18.03	1419770	0	664	664	3622	3622	2138	2138	46277	46277	64.0	7.86	88.87	11	1705	14	24	9	5	2	2
KR13_N1.018	Prokaryote (-1)	5656	56	24	12.77	0.52	0.00	642465	0	760	760	830	830	845	845	3896	3896	38.5	8.54	87.27	11	1169	40	15	1	0	0	0
KR13_N1.019	Prokaryote (-1)	5656	56	24	93.75	21.21	16.67	3161533	0	886	886	5899	5899	3568	3568	57030	57030	40.5	3.93	85.65	11	3694	2	48	6	0	0	0
KR13_N1.020	Prokaryote (-1)	5656	56	24	37.50	13.89	25.00	253740	0	181	181	1660	1660	1401	1401	42971	42971	43.3	7.41	86.04	11	381	16	32	2	6	0	0
KR13_N1.021	Prokaryote (-1)	5656	56	24	100.00	54.25	7.50	3288180	0	917	917	5602	5602	3585	3585	25741	25741	39.2	5.15	86.42	11	3782	0	22	31	3	0	0
KR13_N1.022	Prokaryote (-1)	5656	56	24	86.11	53.80	17.39	1711604	0	881	881	2884	2884	1942	1942	21691	21691	45.4	3.61	92.56	11	2331	8	25	13	9	1	0
KR13_N1.023	Prokaryote (-1)	5656	56	24	100.00	8.33	100.00	4362576	0	664	664	16358	16358	6570	6570	63395	63395	48.8	3.97	86.80	11	4460	0	54	2	0	0	0
KR13_N1.024	Prokaryote (-1)	5656	56	24	94.79	0.00	0.00	2878143	0	473	473	10000	10000	6084	6084	55425	55425	58.4	3.18	88.94	11	2937	3	53	0	0	0	0
KR13_N1.025	Prokaryote (-1)	5656	56	24	74.12	25.12	14.29	1969297	0	643	643	5515	5515	3062	3062	71786	71786	41.6	2.66	92.06	11	2490	17	29	8	2	0	0
KR13_N1.026	Prokaryote (-1)	5656	56	24	23.27	0.46	0.00	533192	0	442	442	1419	1419	1206	1206	21001	21001	40.8	7.48	87.73	11	859	44	11	1	0	0	0
KR13_N1.027	Prokaryote (-1)	5656	56	24	5.39	4.17	0.00	332824	0	337	337	1075	1075	987	987	14352	14352	59.7	9.80	86.82	11	486	52	3	1	0	0	0
KR13_N1.028	Prokaryote (-1)	5656	56	24	64.00	36.81	0.00	1674019	0	1209	1209	1749	1749	1384	1384	19119	19119	36.5	3.53	85.97	11	2587	19	24	7	5	0	1
KR13_N1.029	Prokaryote (-1)	5656	56	24	52.42	4.69	50.00	559621	0	177	177	4778	4778	3161	3161	30426	30426	37.8	3.98	83.95	11	679	21	33	2	0	0	0
KR13_N1.030	Prokaryote (-1)	5656	56	24	98.96	65.25	60.00	3705113	0	1844	1844	2824	2824	2009	2009	25540	25540	36.5	4.66	85.35	11	4931	2	26	20	6	2	0
KR13_N1.031	Prokaryote (-1)	5656	56	24	30.86	5.21	50.00	1115336	0	432	432	3780	3780	2581	2581	14517	14517	68.0	1.68	91.49	11	1416	40	14	2	0	0	0
KR13_N1.032	Prokaryote (-1)	5656	56	24	83.33	4.17	0.00	4325629	0	49	49	213725	213725	88278	88278	518959	518959	63.8	3.16	89.47	11	3991	15	40	1	0	0	0
KR13_N1.033	Prokaryote (-1)	5656	56	24	22.34	0.00	0.00	1599532	0	1101	1101	1886	1886	1452	1452	16357	16357	66.0	3.65	88.57	11	2389	43	13	0	0	0	0
KR13_N1.034	Prokaryote (-1)	5656	56	24	81.25	44.55	3.70	2892946	0	760	760	6640	6640	3806	3806	77221	77221	35.6	4.14	85.91	11	3377	6	25	24	1	0	0
KR13_N1.035	Prokaryote (-1)	5656	56	24	55.98	45.66	0.00	1855904	0	2091	2091	876	876	887	887	6627	6627	42.5	4.34	88.54	11	3407	18	19	9	7	2	1
KR13_N1.036	Prokaryote (-1)	5656	56	24	75.86	24.42	66.67	951058	0	750	750	1455	1455	1268	1268	7934	7934	42.5	4.33	93.75	11	1617	9	37	9	1	0	0
KR13_N1.037	Prokaryote (-1)	5656	56	24	59.52	54.63	0.00	699762	0	264	264	4083	4083	2650	2650	35672	35672	38.1	2.90	88.77	11	924	15	17	17	7	0	0
KR13_N1.038	Prokaryote (-1)	5656	56	24	84.03	22.12	6.67	1103279	0	444	444	3861	3861	2484	2484	15199	15199	39.1	4.84	89.43	11	1428	5	36	15	0	0	0
KR13_N1.039	Prokaryote (-1)	5656	56	24	82.95	16.67	75.00	1394083	0	505	505	4505	4505	2760	2760	75589	75589	39.5	4.05	86.11	11	1711	5	47	4	0	0	0
KR13_N1.040	Prokaryote (-1)	5656	56	24	83.33	0.00	0.00	3985173	0	424	424	22863	22863	9398	9398	72134	72134	55.7	3.92	87.94	11	3567	4	52	0	0	0	0
KR13_N1.041	Prokaryote (-1)	5656	56	24	67.99	77.19	1.89	2791736	0	2828	2828	1038	1038	987	987	9440	9440	38.3	4.06	88.61	11	4834	11	12	14	13	3	3
KR13_N1.042	Prokaryote (-1)	5656	56	24	0.93	0.00	0.00	189168	0	132	132	1801	1801	1433	1433	10000	10000	45.0	5.66	84.97	11	386	54	2	0	0	0	0
KR13_N1.043	Prokaryote (-1)	5656	56	24	93.06	5.56	50.00	3271553	0	762	762	12134	12134	4293	4293	65605	65605	63.0	4.93	89.02	11	3529	8	46	2	0	0	0
KR13_N1.044	Prokaryote (-1)	5656	56	24	93.75	16.97	7.14	2862680	0	1130	1130	4442	4442	2533	2533	30410	30410	43.7	4.59	86.45	11	3727	4	40	11	1	0	0
KR13_N1.045	Prokaryote (-1)	5656	56	24	37.01	18.51	0.00	1305314	0	1409	1409	939	939	926	926	13446	13446	42.2	3.75	88.67	11	2339	31	14	7	4	0	0
KR13_N1.046	Prokaryote (-1)	5656	56	24	82.87	58.49	29.17	6828124	0	3111	3111	4345	4345	2194	2194	35603	35603	58.5	5.65	82.69	11	8407	10	24	21	1	0	0
KR13_N1.047	Prokaryote (-1)	5656	56	24	72.47	27.70	0.00	1527667	0	1068	1068	1797	1797	1430	1430	19190	19190	39.3	5.62	86.93	11	2377	10	23	15	3	5	0
KR13_N1.048	Prokaryote (-1)	5656	56	24	70.19	32.86	0.00	2191214	0	1212	1212	2098	2098	1807	1807	16643	16643	42.4	4.01	89.67	11	3021	21	19	14	2	0	0
KR13_N1.049	Prokaryote (-1)	5656	56	24	98.96	18.98	0.00	5759636	0	1056	1056	29045	29045	5454	5454	153296	153296	51.1	7.43	86.32	11	5685	2	46	5	3	0	0
KR13_N1.050	Prokaryote (-1)	5656	56	24	46.82	19.56	14.29	1500024	0	1032	1032	2068	2068	1453	1453	33868	33868	65.6	7.16	89.03	11	2120	30	19	7	0	0	0
KR13_N1.051	Prokaryote (-1)	5656	56	24	60.72	45.83	22.22	2967368	0	1161	1161	6329	6329	2555	2555	79161	79161	69.2	9.15	89.72	11	3416	27	18	9	1	1	0
KR13_N1.052	Prokaryote (-1)	5656	56	24	56.42	23.53	4.55	782932	0	431	431	2877	2877	1816	1816	14610	14610	37.3	3.16	86.20	11	1076	15	27	10	4	0	0
KR13_N1.053	Prokaryote (-1)	5656	56	24	91.20	29.17	44.44	3346579	0	1112	1112	6465	6465	3009	3009	159266	159266	37.3	3.29	90.99	11	4149	3	48	3	2	0	0
KR13_N1.054	Prokaryote (-1)	5656	56	24	51.32	22.87	0.00	2046690	0	1262	1262	2063	2063	1621	1621	20542	20542	32.9	2.82	85.42	11	3103	26	19	5	6	0	0
KR13_N1.055	Prokaryote (-1)	5656	56	24	83.33	1.04	0.00	4450869	0	506	506	18831	18831	8796	8796	55801	55801	60.6	3.63	84.02	11	4161	14	41	1	0	0	0
KR13_N1.056	Prokaryote (-1)	5656	56	24	86.57	7.70	50.00	2829669	0	1333	1333	2966	2966	2122	2122	22029	22029	56.6	4.05	88.54	11	3739	5	45	6	0	0	0
KR13_N1.057	Prokaryote (-1)	5656	56	24	50.54	10.23	0.00	1348871	0	1225	1225	1205	1205	1101	1101	11297	11297	39.0	2.12	85.32	11	2290	28	22	5	1	0	0
KR13_N1.058	Prokaryote (-1)	5656	56	24	95.83	33.33	5.26	4304230	0	878	878	19399	19399	4902	4902	119915	119915	53.6	5.37	88.86	11	4680	2	37	16	1	0	0
KR13_N1.059	Prokaryote (-1)	5656	56	24	100.00	94.03	0.00	5243643	0	834	834	20069	20069	6287	6287	202710	202710	55.6	10.71	87.61	11	5357	0	8	45	2	1	0
KR13_N1.060	Prokaryote (-1)	5656	56	24	5.82	0.00	0.00	387569	0	142	142	14861	14861	2729	2729	90552	90552	61.6	8.47	89.81	11	458	51	5	0	0	0	0
KR13_N1.061	Prokaryote (-1)	5656	56	24	83.33	1.04	100.00	2117207	0	565	565	5933	5933	3747	3747	32329	32329	61.2	3.11	88.71	11	2317	4	51	1	0	0	0
KR13_N1.062	Prokaryote (-1)	5656	56	24	95.83	53.30	0.00	3068167	0	483	483	46020	46020	6352	6352	565246	565246	36.8	6.16	87.42	11	3359	1	36	19	0	0	0
KR13_N1.063	Prokaryote (-1)	5656	56	24	87.50	17.42	66.67	6651181	0	2417	2417	5056	5056	2751	2751	35626	35626	46.8	4.94	84.75	11	8150	4	46	6	0	0	0
KR13_N1.064	Prokaryote (-1)	5656	56	24	100.00	0.00	0.00	2967434	0	70	70	114848	114848	42391	42391	377230	377230	65.0	1.20	91.44	11	2762	0	56	0	0	0	0
KR13_N1.065	Prokaryote (-1)	5656	56	24	48.96	40.75	2.17	2504369	0	2723	2723	932	932	919	919	8533	8533	47.5	9.27	90.44	11	4316	19	15	13	7	2	0
KR13_N1.066	Prokaryote (-1)	5656	56	24	50.52	14.91	0.00	689503	0	586	586	1358	1358	1176	1176	7440	7440	41.9	3.26	86.88	11	1056	24	21	10	1	0	0
KR13_N1.067	Prokaryote (-1)	5656	56	24	100.00	23.96	0.00	4367743	0	1675	1675	6008	6008	2607	2607	54335	54335	53.0	5.92	88.92	11	5202	0	48	8	0	0	0
KR13_N1.068	Prokaryote (-1)	5656	56	24	24.92	5.21	0.00	640466	0	938	938	647	647	682	682	3309	3309	43.1	10.41	88.00	11	1316	42	12	1	1	0	0
KR13_N1.069	Prokaryote (-1)	5656	56	24	98.61	107.99	0.00	3900870	0	2485	2485	2011	2011	1569	1569	42500	42500	34.5	5.33	86.04	11	5829	3	14	23	12	4	0
KR13_N1.070	Prokaryote (-1)	5656	56	24	85.13	18.53	0.00	7743657	0	4847	4847	2073	2073	1597	1597	31948	31948	56.2	5.47	86.93	11	10748	6	39	10	1	0	0
KR13_N1.071	Prokaryote (-1)	5656	56	24	62.89	17.05	0.00	1275000	0	871	871	1933	1933	1463	1463	10846	10846	37.5	3.90	84.16	11	1918	20	26	4	6	0	0
KR13_N1.072	Prokaryote (-1)	5656	56	24	11.81	0.00	0.00	1507878	0	716	716	3218	3218	2105	2105	15917	15917	68.2	2.51	90.34	11	2036	51	5	0	0	0	0
KR13_N1.073	Prokaryote (-1)	5656	56	24	62.08	19.51	11.76	477243	0	325	325	1717	1717	1468	1468	7217	7217	36.8	1.78	87.87	11	766	21	24	8	3	0	0
KR13_N1.074	Prokaryote (-1)	5656	56	24	4.17	4.17	0.00	658985	0	795	795	794	794	828	828	7989	7989	70.1	4.23	90.45	11	1305	55	0	1	0	0	0
KR13_N1.075	Prokaryote (-1)	5656	56	24	56.84	31.31	0.00	1433162	0	985	985	1670	1670	1454	1454	15012	15012	38.2	2.79	86.74	11	2207	29	19	7	0	1	0
KR13_N1.076	Prokaryote (-1)	5656	56	24	44.68	29.17	33.33	7782327	0	2330	2330	6040	6040	3340	3340	58740	58740	71.6	3.43	90.97	11	8873	43	8	3	2	0	0
KR13_N1.077	Prokaryote (-1)	5656	56	24	83.33	12.54	16.67	4743994	0	1573	1573	4985	4985	3015	3015	65018	65018	42.5	6.17	87.48	11	6392	4	44	6	2	0	0
KR13_N1.078	Prokaryote (-1)	5656	56	24	29.09	27.46	0.00	1650005	0	1248	1248	1532	1532	1322	1322	11272	11272	30.3	4.70	85.54	11	2752	39	11	4	1	1	0
KR13_N1.079	Prokaryote (-1)	5656	56	24	64.39	46.88	20.00	986335	0	379	379	3332	3332	2602	2602	23029	23029	38.1	2.70	87.66	11	1295	24	21	9	2	0	0
KR13_N1.080	Prokaryote (-1)	5656	56	24	65.91	16.73	0.00	3676727	0	2782	2782	1657	1657	1321	1321	8367	8367	48.9	5.08	89.03	11	5442	15	32	7	2	0	0
KR13_N1.081	Prokaryote (-1)	5656	56	24	68.75	0.00	0.00	1262640	0	426	426	11893	11893	2963	2963	40746	40746	29.7	8.67	90.39	11	1533	19	37	0	0	0	0
KR13_N1.082	Prokaryote (-1)	5656	56	24	32.15	11.84	0.00	531363	0	646	646	772	772	822	822	7492	7492	38.9	2.94	86.81	11	1015	38	14	3	1	0	0
KR13_N1.083	Prokaryote (-1)	5656	56	24	49.37	20.83	16.67	3322611	0	2255	2255	1733	1733	1473	1473	22418	22418	35.1	2.41	86.42	11	5003	39	13	3	1	0	0
KR13_N1.084	Prokaryote (-1)	5656	56	24	100.00	36.79	0.00	7470355	0	3169	3169	4521	4521	2357	2357	54473	54473	45.0	6.46	89.15	11	9905	0	40	14	2	0	0
KR13_N1.085	Prokaryote (-1)	5656	56	24	17.01	0.00	0.00	371327	0	322	322	1315	1315	1153	1153	9974	9974	37.0	6.88	86.19	11	638	50	6	0	0	0	0
KR13_N1.086	Prokaryote (-1)	5656	56	24	50.43	28.12	0.00	1484998	0	1090	1090	1632	1632	1362	1362	12826	12826	32.5	1.83	84.08	11	2430	27	22	3	4	0	0
KR13_N1.087	Prokaryote (-1)	5656	56	24	20.70	9.38	0.00	3928003	0	3325	3325	1256	1256	1181	1181	40676	40676	47.8	2.67	88.22	11	6016	43	9	4	0	0	0
KR13_N1.088	Prokaryote (-1)	5656	56	24	14.50	0.38	0.00	665360	0	857	857	737	737	776	776	3232	3232	53.1	17.80	88.70	11	1195	44	11	1	0	0	0
KR13_N1.089	Prokaryote (-1)	5656	56	24	24.21	14.16	0.00	5002413	0	4341	4341	1253	1253	1152	1152	37469	37469	41.9	4.13	89.40	11	7484	39	12	3	2	0	0
KR13_N1.090	Prokaryote (-1)	5656	56	24	89.58	119.02	0.00	5961156	0	5976	5976	1003	1003	997	997	14062	14062	41.7	4.20	88.19	11	10203	3	16	15	15	6	1
KR13_N1.091	Prokaryote (-1)	5656	56	24	41.17	17.52	0.00	841493	0	759	759	1186	1186	1108	1108	7285	7285	38.0	1.75	84.15	11	1484	25	19	10	2	0	0
KR13_N1.092	Prokaryote (-1)	5656	56	24	46.49	46.28	2.17	1609721	0	1058	1058	1825	1825	1521	1521	17898	17898	37.9	2.54	88.83	11	2341	27	16	7	3	0	3
KR13_N1.093	Prokaryote (-1)	5656	56	24	0.00	0.00	0.00	110690	0	73	73	1490	1490	1516	1516	16803	16803	65.0	4.48	88.11	11	157	56	0	0	0	0	0
KR13_N1.094	Prokaryote (-1)	5656	56	24	60.98	30.53	0.00	6252875	0	7579	7579	793	793	825	825	21462	21462	57.8	10.09	88.44	11	10976	24	23	8	1	0	0
KR13_N1.095	Prokaryote (-1)	5656	56	24	59.33	56.25	0.00	4758445	0	5066	5066	948	948	939	939	7690	7690	34.7	2.60	87.57	11	8497	31	14	6	3	2	0
KR13_N1.096	Prokaryote (-1)	5656	56	24	29.64	5.07	0.00	7695161	0	7351	7351	1122	1122	1046	1046	8469	8469	64.0	3.82	88.58	11	12301	41	12	3	0	0	0
KR13_N1.097	Prokaryote (-1)	5656	56	24	54.53	17.91	0.00	4297325	0	6316	6316	632	632	680	680	11866	11866	48.6	23.02	85.02	11	8004	26	20	10	0	0	0
